riscv_pipe.vcd
$date
	Tue Jun 16 02:45:22 2026
$end
$version
	Icarus Verilog
$end
$timescale
	1s
$end
$scope module testbench $end
$var wire 32 ! DataAdr [31:0] $end
$var wire 1 " MemWrite $end
$var wire 32 # WriteData [31:0] $end
$var reg 1 $ clk $end
$var reg 1 % done $end
$var reg 1 & reset $end
$scope module dut $end
$var wire 32 ' DataAdr [31:0] $end
$var wire 32 ( Instr [31:0] $end
$var wire 1 " MemWrite $end
$var wire 32 ) PC [31:0] $end
$var wire 32 * ReadData [31:0] $end
$var wire 32 + WriteData [31:0] $end
$var wire 1 , clk $end
$var wire 1 - reset $end
$scope module rvsingle $end
$var wire 4 . ALUControlD [3:0] $end
$var wire 32 / ALUResultE [31:0] $end
$var wire 1 0 ALUSrcD $end
$var wire 1 1 BranchTakenE $end
$var wire 1 2 EqualE $end
$var wire 1 3 FlushD $end
$var wire 1 4 FlushE $end
$var wire 2 5 ForwardAE [1:0] $end
$var wire 2 6 ForwardBE [1:0] $end
$var wire 32 7 ImmExtD [31:0] $end
$var wire 3 8 ImmSrcD [2:0] $end
$var wire 32 9 InstrF [31:0] $end
$var wire 1 : JumpD $end
$var wire 1 ; LessThanE $end
$var wire 1 < MemWriteD $end
$var wire 32 = PCF [31:0] $end
$var wire 32 > PCNextF [31:0] $end
$var wire 32 ? PCPlus4F [31:0] $end
$var wire 1 @ PCSrcE $end
$var wire 32 A PCTargetE [31:0] $end
$var wire 32 B RD1D [31:0] $end
$var wire 32 C RD1RawD [31:0] $end
$var wire 32 D RD2D [31:0] $end
$var wire 32 E RD2RawD [31:0] $end
$var wire 5 F RdD [4:0] $end
$var wire 32 G ReadDataM [31:0] $end
$var wire 1 H RegWriteD $end
$var wire 2 I ResultSrcD [1:0] $end
$var wire 32 J ResultW [31:0] $end
$var wire 5 K Rs1D [4:0] $end
$var wire 5 L Rs2D [4:0] $end
$var wire 32 M SrcAE [31:0] $end
$var wire 32 N SrcBE [31:0] $end
$var wire 1 O StallD $end
$var wire 1 P StallF $end
$var wire 32 Q WriteDataE [31:0] $end
$var wire 1 R ZeroE $end
$var wire 1 , clk $end
$var wire 3 S funct3D [2:0] $end
$var wire 1 T funct7b5D $end
$var wire 7 U opD [6:0] $end
$var wire 1 - reset $end
$var reg 4 V ALUControlE [3:0] $end
$var reg 32 W ALUResultM [31:0] $end
$var reg 32 X ALUResultW [31:0] $end
$var reg 1 Y ALUSrcE $end
$var reg 1 Z BranchE $end
$var reg 32 [ ImmExtE [31:0] $end
$var reg 3 \ ImmSrcE [2:0] $end
$var reg 32 ] InstrD [31:0] $end
$var reg 1 ^ JumpE $end
$var reg 1 _ MemWriteE $end
$var reg 1 ` MemWriteM $end
$var reg 32 a PCD [31:0] $end
$var reg 32 b PCE [31:0] $end
$var reg 32 c PCPlus4D [31:0] $end
$var reg 32 d PCPlus4E [31:0] $end
$var reg 32 e PCPlus4M [31:0] $end
$var reg 32 f PCPlus4W [31:0] $end
$var reg 32 g RD1E [31:0] $end
$var reg 32 h RD2E [31:0] $end
$var reg 5 i RdE [4:0] $end
$var reg 5 j RdM [4:0] $end
$var reg 5 k RdW [4:0] $end
$var reg 32 l ReadDataW [31:0] $end
$var reg 1 m RegWriteE $end
$var reg 1 n RegWriteM $end
$var reg 1 o RegWriteW $end
$var reg 2 p ResultSrcE [1:0] $end
$var reg 2 q ResultSrcM [1:0] $end
$var reg 2 r ResultSrcW [1:0] $end
$var reg 5 s Rs1E [4:0] $end
$var reg 5 t Rs2E [4:0] $end
$var reg 32 u WriteDataM [31:0] $end
$var reg 3 v funct3E [2:0] $end
$scope module pcreg $end
$var wire 1 , clk $end
$var wire 32 w d [31:0] $end
$var wire 1 - reset $end
$var reg 32 x q [31:0] $end
$upscope $end
$scope module pcadd4 $end
$var wire 32 y a [31:0] $end
$var wire 32 z b [31:0] $end
$var wire 32 { y [31:0] $end
$upscope $end
$scope module c $end
$var wire 4 | ALUControl [3:0] $end
$var wire 2 } ALUOp [1:0] $end
$var wire 1 0 ALUSrc $end
$var wire 1 ~ Branch $end
$var wire 3 !" ImmSrc [2:0] $end
$var wire 1 : Jump $end
$var wire 1 < MemWrite $end
$var wire 1 "" PCSrc $end
$var wire 1 H RegWrite $end
$var wire 2 #" ResultSrc [1:0] $end
$var wire 1 $" Zero $end
$var wire 3 %" funct3 [2:0] $end
$var wire 1 T funct7b5 $end
$var wire 7 &" op [6:0] $end
$scope module md $end
$var wire 2 '" ALUOp [1:0] $end
$var wire 1 0 ALUSrc $end
$var wire 1 ~ Branch $end
$var wire 3 (" ImmSrc [2:0] $end
$var wire 1 : Jump $end
$var wire 1 < MemWrite $end
$var wire 1 H RegWrite $end
$var wire 2 )" ResultSrc [1:0] $end
$var wire 7 *" op [6:0] $end
$var reg 12 +" controls [11:0] $end
$upscope $end
$scope module ad $end
$var wire 4 ," ALUControl [3:0] $end
$var wire 2 -" ALUOp [1:0] $end
$var wire 1 ." RtypeSub $end
$var wire 3 /" funct3 [2:0] $end
$var wire 1 T funct7b5 $end
$var wire 1 0" opb5 $end
$var reg 4 1" ALUControl_reg [3:0] $end
$upscope $end
$upscope $end
$scope module rf $end
$var wire 5 2" a1 [4:0] $end
$var wire 5 3" a2 [4:0] $end
$var wire 5 4" a3 [4:0] $end
$var wire 1 , clk $end
$var wire 32 5" rd1 [31:0] $end
$var wire 32 6" rd2 [31:0] $end
$var wire 32 7" wd3 [31:0] $end
$var wire 1 8" we3 $end
$upscope $end
$scope module ext $end
$var wire 32 9" immext [31:0] $end
$var wire 3 :" immsrc [2:0] $end
$var wire 25 ;" instr [31:7] $end
$var reg 32 <" immext_reg [31:0] $end
$upscope $end
$scope module forwardamux $end
$var wire 32 =" d0 [31:0] $end
$var wire 32 >" d1 [31:0] $end
$var wire 32 ?" d2 [31:0] $end
$var wire 2 @" s [1:0] $end
$var wire 32 A" y [31:0] $end
$upscope $end
$scope module forwardbmux $end
$var wire 32 B" d0 [31:0] $end
$var wire 32 C" d1 [31:0] $end
$var wire 32 D" d2 [31:0] $end
$var wire 2 E" s [1:0] $end
$var wire 32 F" y [31:0] $end
$upscope $end
$scope module srcbmux $end
$var wire 32 G" d0 [31:0] $end
$var wire 32 H" d1 [31:0] $end
$var wire 1 I" s $end
$var wire 32 J" y [31:0] $end
$upscope $end
$scope module alu $end
$var wire 32 K" a [31:0] $end
$var wire 4 L" alucontrol [3:0] $end
$var wire 32 M" b [31:0] $end
$var wire 32 N" condinvb [31:0] $end
$var wire 1 O" isAddSub $end
$var wire 32 P" result [31:0] $end
$var wire 32 Q" sum [31:0] $end
$var wire 1 R" v $end
$var wire 1 R zero $end
$var reg 32 S" result_reg [31:0] $end
$upscope $end
$scope module pcaddbranch $end
$var wire 32 T" a [31:0] $end
$var wire 32 U" b [31:0] $end
$var wire 32 V" y [31:0] $end
$upscope $end
$scope module pcmux $end
$var wire 32 W" d0 [31:0] $end
$var wire 32 X" d1 [31:0] $end
$var wire 1 @ s $end
$var wire 32 Y" y [31:0] $end
$upscope $end
$scope module resultmux $end
$var wire 32 Z" d0 [31:0] $end
$var wire 32 [" d1 [31:0] $end
$var wire 32 \" d2 [31:0] $end
$var wire 2 ]" s [1:0] $end
$var wire 32 ^" y [31:0] $end
$upscope $end
$upscope $end
$scope module imem $end
$var wire 32 _" a [31:0] $end
$var wire 32 `" rd [31:0] $end
$var reg 256 a" memfile [255:0] $end
$upscope $end
$scope module dmem $end
$var wire 32 b" a [31:0] $end
$var wire 1 , clk $end
$var wire 32 c" rd [31:0] $end
$var wire 32 d" wd [31:0] $end
$var wire 1 " we $end
$upscope $end
$upscope $end
$scope task print_state $end
$upscope $end
$upscope $end
$enddefinitions $end
#0
$dumpvars
b0 d"
bx c"
b0 b"
b11011000111010101101001010111110111010001100101011100110111010000101110011011010110010101101101 a"
b10010001101000101001010110111 `"
b0 _"
b0 ^"
b0 ]"
b0 \"
b0 ["
b0 Z"
b100 Y"
b0 X"
b100 W"
b0 V"
b0 U"
b0 T"
b0 S"
0R"
b0 Q"
b0 P"
1O"
b0 N"
b0 M"
b0 L"
b0 K"
b0 J"
0I"
b0 H"
b0 G"
b0 F"
b0 E"
b0 D"
b0 C"
b0 B"
b0 A"
b0 @"
b0 ?"
b0 >"
b0 ="
b0 <"
b0 ;"
b0 :"
b0 9"
08"
b0 7"
b0 6"
b0 5"
b0 4"
b0 3"
b0 2"
b0 1"
00"
b0 /"
0."
b10 -"
b0 ,"
b100010000100 +"
b10011 *"
b0 )"
b0 ("
b10 '"
b10011 &"
b0 %"
0$"
b0 #"
0""
b0 !"
0~
b10 }
b0 |
b100 {
b100 z
b0 y
b0 x
b100 w
b0 v
b0 u
b0 t
b0 s
b0 r
b0 q
b0 p
0o
0n
0m
b0 l
b0 k
b0 j
b0 i
b0 h
b0 g
b0 f
b0 e
b0 d
b0 c
b0 b
b0 a
0`
0_
0^
b10011 ]
b0 \
b0 [
0Z
0Y
b0 X
b0 W
b0 V
b10011 U
0T
b0 S
1R
b0 Q
0P
0O
b0 N
b0 M
b0 L
b0 K
b0 J
b0 I
1H
bx G
b0 F
b0 E
b0 D
b0 C
b0 B
b0 A
0@
b100 ?
b100 >
b0 =
0<
0;
0:
b10010001101000101001010110111 9
b0 8
b0 7
b0 6
b0 5
04
03
12
11
10
b0 /
b0 .
1-
1,
b0 +
bx *
b0 )
b10010001101000101001010110111 (
b0 '
1&
0%
1$
b0 #
0"
b0 !
$end
#5
0$
0,
#10
1$
1,
#15
0$
0,
#20
1$
1,
#22
0&
0-
#25
0$
0,
#30
b100 8
b100 !"
b100 ("
b100 :"
b11 }
b11 '"
b11 -"
bx B
bx D
10"
b110010000110 +"
b1001 1"
b1001 .
b1001 |
b1001 ,"
bx C
bx 5"
bx E
bx 6"
b10010001101000101000000000000 <"
b10010001101000101000000000000 7
b10010001101000101000000000000 9"
b1000 w
b110111 U
b110111 &"
b110111 *"
b101 S
b101 %"
b101 /"
b1000 K
b1000 2"
b11 L
b11 3"
b101 F
b1001000110100010100101 ;"
b1000 >
b1000 Y"
b110010100000010001000100011 (
b110010100000010001000100011 9
b110010100000010001000100011 `"
bx l
bx ["
1m
1Y
1I"
b100 c
b10010001101000101001010110111 ]
b100 x
b1000 ?
b1000 {
b1000 W"
b100 )
b100 =
b100 y
b100 _"
1$
1,
#35
0$
0,
#40
b0 1"
b0 .
b0 |
b0 ,"
0H
b1 8
b1 !"
b1 ("
b1 :"
1<
b0 }
b0 '"
b0 -"
b0 B
b1100 w
b111000000 +"
b0 C
b0 5"
b1100100 <"
b1100100 7
b1100100 9"
b10010001101000101000000000000 S"
0R
b10010001101000101000000000000 /
b10010001101000101000000000000 P"
bx Q
bx F"
bx G"
x;
x2
bx M
bx A"
bx K"
b11101101110010111010111111111111 N"
b1100 >
b1100 Y"
bx (
bx 9
bx `"
b100011 U
b100011 &"
b100011 *"
b10 S
b10 %"
b10 /"
b0 K
b0 2"
b101 L
b101 3"
b100 F
b11001010000001000100 ;"
b10010001101000101000000000000 N
b10010001101000101000000000000 J"
b10010001101000101000000000000 M"
x1
bx Q"
0O"
b1000 x
b1100 ?
b1100 {
b1100 W"
b1000 )
b1000 =
b1000 y
b1000 _"
b1000 c
b100 a
b110010100000010001000100011 ]
b101 i
b11 t
b1000 s
b100 d
b10010001101000101000000000000 [
b10010001101000101000000000000 H"
b10010001101000101000000000000 U"
b10010001101000101000000000000 A
b10010001101000101000000000000 V"
b10010001101000101000000000000 X"
bx h
bx B"
bx g
bx ="
b101 v
b1001 V
b1001 L"
b100 \
1n
1$
1,
#45
0$
0,
#50
1;
02
b10010001101000101000000000000 Q
b10010001101000101000000000000 F"
b10010001101000101000000000000 G"
01
bx 1"
bx .
bx |
bx ,"
x""
b10 6
b10 E"
xH
bx 8
bx !"
bx ("
bx :"
x0
x<
bx I
bx #"
bx )"
x~
bx }
bx '"
bx -"
x:
bx B
b1100100 Q"
b0 M
b0 A"
b0 K"
b1100100 N"
0R"
x0"
bx +"
x."
bx C
bx 5"
bx <"
bx 7
bx 9"
b10000 w
b1100100 N
b1100100 J"
b1100100 M"
b1100100 S"
0R
b1100100 /
b1100100 P"
1O"
bx U
bx &"
bx *"
bx S
bx %"
bx /"
xT
bx K
bx 2"
bx L
bx 3"
bx F
bx ;"
b10000 >
b10000 Y"
1o
18"
b101 j
b100 e
bx u
bx #
bx +
bx d"
b10010001101000101000000000000 W
b10010001101000101000000000000 !
b10010001101000101000000000000 '
b10010001101000101000000000000 ?"
b10010001101000101000000000000 D"
b10010001101000101000000000000 b"
b100 i
b101 t
b0 s
b1000 d
b1100100 [
b1100100 H"
b1100100 U"
b100 b
b100 T"
b1101000 A
b1101000 V"
b1101000 X"
b0 g
b0 ="
b10 v
b0 V
b0 L"
0m
1_
b1 \
b1100 c
b1000 a
bx ]
b1100 x
b10000 ?
b10000 {
b10000 W"
b1100 )
b1100 =
b1100 y
b1100 _"
1$
1,
#55
0$
0,
#60
xR"
b0x 5
b0x @"
bx w
x;
x2
bx M
bx A"
bx K"
x4
bx N"
xP
xO
b0x 6
b0x E"
b10010001101000101000000000000 J
b10010001101000101000000000000 7"
b10010001101000101000000000000 >"
b10010001101000101000000000000 C"
b10010001101000101000000000000 ^"
bx >
bx Y"
x1
bx S"
xR
bx /
bx P"
bx Q"
xO"
x3
x@
bx N
bx J"
bx M"
bx Q
bx F"
bx G"
b10000 x
b10100 ?
b10100 {
b10100 W"
b10000 )
b10000 =
b10000 y
b10000 _"
b10000 c
b1100 a
bx i
bx t
bx s
b1100 d
bx [
bx H"
bx U"
b1000 b
b1000 T"
bx A
bx V"
bx X"
bx g
bx ="
bx v
bx V
bx L"
xZ
x^
xm
xY
xI"
x_
bx \
bx p
b100 j
b1000 e
b10010001101000101000000000000 u
b10010001101000101000000000000 #
b10010001101000101000000000000 +
b10010001101000101000000000000 d"
b1100100 W
b1100100 !
b1100100 '
b1100100 ?"
b1100100 D"
b1100100 b"
0n
1`
1"
b101 k
b101 4"
b100 f
b100 \"
b10010001101000101000000000000 X
b10010001101000101000000000000 Z"
1$
1,
#65
0$
0,
#70
b1100100 J
b1100100 7"
b1100100 >"
b1100100 C"
b1100100 ^"
bx0 6
bx0 E"
bx0 5
bx0 @"
bx *
bx G
bx c"
b100 k
b100 4"
b1000 f
b1000 \"
b1100100 X
b1100100 Z"
0o
08"
bx j
b1100 e
bx u
bx #
bx +
bx d"
bx W
bx !
bx '
bx ?"
bx D"
bx b"
xn
x`
x"
bx q
b10000 d
b1100 b
b1100 T"
bx x
bx ?
bx {
bx W"
bx )
bx =
bx y
bx _"
1$
1,
#75
0$
0,
#80
bx 6
bx E"
bx 5
bx @"
bx J
bx 7"
bx >"
bx C"
bx ^"
b10000 e
bx k
bx 4"
b1100 f
b1100 \"
bx X
bx Z"
xo
x8"
bx r
bx ]"
1$
1,
#85
0$
0,
#90
b10000 f
b10000 \"
1$
1,
