riscv_pipe.vcd
$date
	Tue Jun 16 19:01:58 2026
$end
$version
	Icarus Verilog
$end
$timescale
	1s
$end
$scope module testbench $end
$var reg 1 ! clk $end
$upscope $end
$scope module testbench $end
$var reg 1 " reset $end
$upscope $end
$scope module testbench $end
$scope module dut $end
$scope module rvcore $end
$var wire 32 # PCF [31:0] $end
$upscope $end
$upscope $end
$upscope $end
$scope module testbench $end
$scope module dut $end
$scope module rvcore $end
$var wire 32 $ InstrF [31:0] $end
$upscope $end
$upscope $end
$upscope $end
$scope module testbench $end
$scope module dut $end
$scope module rvcore $end
$var reg 32 % InstrD [31:0] $end
$upscope $end
$upscope $end
$upscope $end
$scope module testbench $end
$scope module dut $end
$scope module rvcore $end
$var reg 32 & InstrE [31:0] $end
$upscope $end
$upscope $end
$upscope $end
$scope module testbench $end
$scope module dut $end
$scope module rvcore $end
$var reg 32 ' InstrM [31:0] $end
$upscope $end
$upscope $end
$upscope $end
$scope module testbench $end
$scope module dut $end
$scope module rvcore $end
$var reg 32 ( InstrW [31:0] $end
$upscope $end
$upscope $end
$upscope $end
$scope module testbench $end
$scope module dut $end
$scope module rvcore $end
$var wire 5 ) Rs1D [4:0] $end
$upscope $end
$upscope $end
$upscope $end
$scope module testbench $end
$scope module dut $end
$scope module rvcore $end
$var wire 5 * Rs2D [4:0] $end
$upscope $end
$upscope $end
$upscope $end
$scope module testbench $end
$scope module dut $end
$scope module rvcore $end
$var reg 5 + RdE [4:0] $end
$upscope $end
$upscope $end
$upscope $end
$scope module testbench $end
$scope module dut $end
$scope module rvcore $end
$var reg 5 , Rs1E [4:0] $end
$upscope $end
$upscope $end
$upscope $end
$scope module testbench $end
$scope module dut $end
$scope module rvcore $end
$var reg 5 - Rs2E [4:0] $end
$upscope $end
$upscope $end
$upscope $end
$scope module testbench $end
$scope module dut $end
$scope module rvcore $end
$var reg 2 . ResultSrcE [1:0] $end
$upscope $end
$upscope $end
$upscope $end
$scope module testbench $end
$scope module dut $end
$scope module rvcore $end
$var wire 1 / StallF $end
$upscope $end
$upscope $end
$upscope $end
$scope module testbench $end
$scope module dut $end
$scope module rvcore $end
$var wire 1 0 StallD $end
$upscope $end
$upscope $end
$upscope $end
$scope module testbench $end
$scope module dut $end
$scope module rvcore $end
$var wire 1 1 FlushD $end
$upscope $end
$upscope $end
$upscope $end
$scope module testbench $end
$scope module dut $end
$scope module rvcore $end
$var wire 1 2 FlushE $end
$upscope $end
$upscope $end
$upscope $end
$scope module testbench $end
$scope module dut $end
$scope module rvcore $end
$var wire 2 3 ForwardAE [1:0] $end
$upscope $end
$upscope $end
$upscope $end
$scope module testbench $end
$scope module dut $end
$scope module rvcore $end
$var wire 2 4 ForwardBE [1:0] $end
$upscope $end
$upscope $end
$upscope $end
$scope module testbench $end
$scope module dut $end
$scope module rvcore $end
$var wire 32 5 SrcAE [31:0] $end
$upscope $end
$upscope $end
$upscope $end
$scope module testbench $end
$scope module dut $end
$scope module rvcore $end
$var wire 32 6 SrcBE [31:0] $end
$upscope $end
$upscope $end
$upscope $end
$scope module testbench $end
$scope module dut $end
$scope module rvcore $end
$var reg 32 7 ImmExtE [31:0] $end
$upscope $end
$upscope $end
$upscope $end
$scope module testbench $end
$scope module dut $end
$scope module rvcore $end
$var reg 4 8 ALUControlE [3:0] $end
$upscope $end
$upscope $end
$upscope $end
$scope module testbench $end
$scope module dut $end
$scope module rvcore $end
$var wire 32 9 ALUResultE [31:0] $end
$upscope $end
$upscope $end
$upscope $end
$scope module testbench $end
$scope module dut $end
$scope module rvcore $end
$var wire 32 : WriteDataE [31:0] $end
$upscope $end
$upscope $end
$upscope $end
$scope module testbench $end
$scope module dut $end
$scope module rvcore $end
$var reg 32 ; ALUResultM [31:0] $end
$upscope $end
$upscope $end
$upscope $end
$scope module testbench $end
$scope module dut $end
$scope module rvcore $end
$var reg 32 < WriteDataM [31:0] $end
$upscope $end
$upscope $end
$upscope $end
$scope module testbench $end
$scope module dut $end
$scope module rvcore $end
$var reg 1 = MemWriteM $end
$upscope $end
$upscope $end
$upscope $end
$scope module testbench $end
$var wire 32 > DataAdr [31:0] $end
$upscope $end
$scope module testbench $end
$var wire 32 ? WriteData [31:0] $end
$upscope $end
$scope module testbench $end
$var wire 1 = MemWrite $end
$upscope $end
$scope module testbench $end
$scope module dut $end
$scope module rvcore $end
$var wire 32 @ ResultW [31:0] $end
$upscope $end
$upscope $end
$upscope $end
$scope module testbench $end
$scope module dut $end
$scope module rvcore $end
$var reg 1 A RegWriteW $end
$upscope $end
$upscope $end
$upscope $end
$scope module testbench $end
$scope module dut $end
$scope module rvcore $end
$var reg 5 B RdW [4:0] $end
$upscope $end
$upscope $end
$upscope $end
$scope module testbench $end
$scope module dut $end
$scope module rvcore $end
$var reg 32 C ReadDataW [31:0] $end
$upscope $end
$upscope $end
$upscope $end
$scope module testbench $end
$scope module dut $end
$scope module rvcore $end
$scope module rf $end
$var reg 32 D \rf[1] [31:0] $end
$upscope $end
$upscope $end
$upscope $end
$upscope $end
$scope module testbench $end
$scope module dut $end
$scope module rvcore $end
$scope module rf $end
$var reg 32 E \rf[2] [31:0] $end
$upscope $end
$upscope $end
$upscope $end
$upscope $end
$scope module testbench $end
$scope module dut $end
$scope module rvcore $end
$scope module rf $end
$var reg 32 F \rf[3] [31:0] $end
$upscope $end
$upscope $end
$upscope $end
$upscope $end
$scope module testbench $end
$scope module dut $end
$scope module rvcore $end
$scope module rf $end
$var reg 32 G \rf[4] [31:0] $end
$upscope $end
$upscope $end
$upscope $end
$upscope $end
$scope module testbench $end
$scope module dut $end
$scope module rvcore $end
$scope module rf $end
$var reg 32 H \rf[5] [31:0] $end
$upscope $end
$upscope $end
$upscope $end
$upscope $end
$scope module testbench $end
$scope module dut $end
$scope module rvcore $end
$scope module rf $end
$var reg 32 I \rf[6] [31:0] $end
$upscope $end
$upscope $end
$upscope $end
$upscope $end
$scope module testbench $end
$scope module dut $end
$scope module rvcore $end
$scope module rf $end
$var reg 32 J \rf[7] [31:0] $end
$upscope $end
$upscope $end
$upscope $end
$upscope $end
$scope module testbench $end
$scope module dut $end
$scope module rvcore $end
$scope module rf $end
$var reg 32 K \rf[8] [31:0] $end
$upscope $end
$upscope $end
$upscope $end
$upscope $end
$scope module testbench $end
$scope module dut $end
$scope module rvcore $end
$scope module rf $end
$var reg 32 L \rf[9] [31:0] $end
$upscope $end
$upscope $end
$upscope $end
$upscope $end
$scope module testbench $end
$scope module dut $end
$scope module rvcore $end
$scope module rf $end
$var reg 32 M \rf[10] [31:0] $end
$upscope $end
$upscope $end
$upscope $end
$upscope $end
$scope module testbench $end
$scope module dut $end
$scope module rvcore $end
$scope module rf $end
$var reg 32 N \rf[11] [31:0] $end
$upscope $end
$upscope $end
$upscope $end
$upscope $end
$enddefinitions $end
$comment Show the parameter values. $end
$dumpall
$end
#0
$dumpvars
bx N
bx M
bx L
bx K
bx J
bx I
bx H
bx G
bx F
bx E
bx D
b0 C
b0 B
0A
b0 @
b0 ?
b0 >
0=
b0 <
b0 ;
b0 :
b0 9
b0 8
b0 7
b0 6
b0 5
b0 4
b0 3
02
01
00
0/
b0 .
b0 -
b0 ,
b0 +
b0 *
b0 )
b10011 (
b10011 '
b10011 &
b10011 %
b110000000000001000010011 $
b0 #
1"
1!
$end
#5
0!
#10
1!
#15
0!
#20
1!
#22
0"
#25
0!
#30
b1100 *
b110010000000010000000100011 $
bx C
b110000000000001000010011 %
b100 #
1!
#35
0!
#40
b1100 9
bx :
b110000000000010000010000011 $
b100 *
b1100 6
b1000 #
b110010000000010000000100011 %
b100 +
b1100 -
b1100 7
b110000000000001000010011 &
1!
#45
0!
#50
b1100 :
b10 4
b1100000 9
b1100000 6
b0 *
b100001000000100110011 $
1A
b110000000000001000010011 '
bx <
bx ?
b1100 ;
b1100 >
b0 +
b100 -
b1100000 7
b110010000000010000000100011 &
b110000000000010000010000011 %
b1100 #
1!
#55
0!
#60
12
1/
10
b0 4
b1100 @
b100010000000110010011 $
b1 )
b1 *
b0 :
b10000 #
b100001000000100110011 %
b1 +
b0 -
b110000000000010000010000011 &
b1 .
b110010000000010000000100011 '
b1100 <
b1100 ?
b1100000 ;
b1100000 >
1=
b100 B
b110000000000001000010011 (
1!
#65
0!
#70
b0 9
02
b1100000 @
0/
00
b0 6
b1100 G
b0 B
b110010000000010000000100011 (
0A
b110000000000010000010000011 '
b0 <
b0 ?
0=
b0 +
b0 7
b10011 &
b0 .
1!
#75
0!
#80
b1 3
b1 4
b1100 6
b11000 9
b1100 @
b1100 :
b1100 5
b110001100000010001000100011 $
b10 )
b10100 #
b100010000000110010011 %
b10 +
b1 -
b1 ,
bx 7
b100001000000100110011 &
b10011 '
b0 ;
b0 >
b1 B
b1100 C
b110000000000010000010000011 (
1A
1!
#85
0!
#90
b1100 :
b11000 5
b0 4
b10 3
b11001 9
b0 @
b1 6
b0 )
b11 *
b1100011 $
b1100 D
b0 B
bx C
b10011 (
0A
b100001000000100110011 '
b1100 <
b1100 ?
b11000 ;
b11000 >
b11 +
b10 ,
b1 7
b100010000000110010011 &
b110001100000010001000100011 %
b11000 #
1!
#95
0!
#100
b10 4
b0 3
b11001 :
b1100100 9
b11000 @
bx $
b0 *
b1100100 6
b0 5
b11100 #
b1100011 %
b100 +
b11 -
b0 ,
b1100100 7
b110001100000010001000100011 &
b100010000000110010011 '
b11001 ;
b11001 >
b10 B
b100001000000100110011 (
1A
1!
#105
0!
#110
12
11
b0 9
b11001 @
b0 4
b0 :
b0 6
bx )
bx *
b11000 E
b11 B
b100010000000110010011 (
b110001100000010001000100011 '
b11001 <
b11001 ?
b1100100 ;
b1100100 >
1=
b0 +
b0 -
b0 7
b1100011 &
b1 8
bx %
b100000 #
1!
#115
0!
#120
02
01
b1100100 @
b1100011 $
b0 )
b0 *
b11001 F
b11000 #
b10011 %
b10011 &
b0 8
b1100011 '
b0 <
b0 ?
b0 ;
b0 >
0=
b100 B
b110001100000010001000100011 (
0A
1!
#125
0!
#130
b0 @
bx $
b0 B
b1100011 (
b10011 '
b1100011 %
b11100 #
1!
