pipev1/riscv_pipe.vcd
$date
	Sun Jun 14 03:54:57 2026
$end
$version
	Icarus Verilog
$end
$timescale
	1s
$end
$scope module testbench $end
$var wire 32 ! DataAdr [31:0] $end
$var wire 1 " MemWrite $end
$var wire 32 # WriteData [31:0] $end
$var reg 1 $ clk $end
$var reg 1 % reset $end
$scope module dut $end
$var wire 32 & DataAdr [31:0] $end
$var wire 32 ' Instr [31:0] $end
$var wire 1 " MemWrite $end
$var wire 32 ( PC [31:0] $end
$var wire 32 ) ReadData [31:0] $end
$var wire 32 * WriteData [31:0] $end
$var wire 1 + clk $end
$var wire 1 , reset $end
$scope module rvsingle $end
$var wire 3 - ALUControlD [2:0] $end
$var wire 32 . ALUResultE [31:0] $end
$var wire 1 / ALUSrcD $end
$var wire 1 0 FlushD $end
$var wire 1 1 FlushE $end
$var wire 2 2 ForwardAE [1:0] $end
$var wire 2 3 ForwardBE [1:0] $end
$var wire 32 4 ImmExtD [31:0] $end
$var wire 2 5 ImmSrcD [1:0] $end
$var wire 32 6 InstrF [31:0] $end
$var wire 1 7 JumpD $end
$var wire 1 8 MemWriteD $end
$var wire 32 9 PCF [31:0] $end
$var wire 32 : PCNextF [31:0] $end
$var wire 32 ; PCPlus4F [31:0] $end
$var wire 1 < PCSrcE $end
$var wire 32 = PCTargetE [31:0] $end
$var wire 32 > RD1D [31:0] $end
$var wire 32 ? RD1RawD [31:0] $end
$var wire 32 @ RD2D [31:0] $end
$var wire 32 A RD2RawD [31:0] $end
$var wire 5 B RdD [4:0] $end
$var wire 32 C ReadDataM [31:0] $end
$var wire 1 D RegWriteD $end
$var wire 2 E ResultSrcD [1:0] $end
$var wire 32 F ResultW [31:0] $end
$var wire 5 G Rs1D [4:0] $end
$var wire 5 H Rs2D [4:0] $end
$var wire 32 I SrcAE [31:0] $end
$var wire 32 J SrcBE [31:0] $end
$var wire 1 K StallD $end
$var wire 1 L StallF $end
$var wire 32 M WriteDataE [31:0] $end
$var wire 1 N ZeroE $end
$var wire 1 + clk $end
$var wire 3 O funct3D [2:0] $end
$var wire 1 P funct7b5D $end
$var wire 7 Q opD [6:0] $end
$var wire 1 , reset $end
$var reg 3 R ALUControlE [2:0] $end
$var reg 32 S ALUResultM [31:0] $end
$var reg 32 T ALUResultW [31:0] $end
$var reg 1 U ALUSrcE $end
$var reg 1 V BranchE $end
$var reg 32 W ImmExtE [31:0] $end
$var reg 32 X InstrD [31:0] $end
$var reg 1 Y JumpE $end
$var reg 1 Z MemWriteE $end
$var reg 1 [ MemWriteM $end
$var reg 32 \ PCD [31:0] $end
$var reg 32 ] PCE [31:0] $end
$var reg 32 ^ PCPlus4D [31:0] $end
$var reg 32 _ PCPlus4E [31:0] $end
$var reg 32 ` PCPlus4M [31:0] $end
$var reg 32 a PCPlus4W [31:0] $end
$var reg 32 b RD1E [31:0] $end
$var reg 32 c RD2E [31:0] $end
$var reg 5 d RdE [4:0] $end
$var reg 5 e RdM [4:0] $end
$var reg 5 f RdW [4:0] $end
$var reg 32 g ReadDataW [31:0] $end
$var reg 1 h RegWriteE $end
$var reg 1 i RegWriteM $end
$var reg 1 j RegWriteW $end
$var reg 2 k ResultSrcE [1:0] $end
$var reg 2 l ResultSrcM [1:0] $end
$var reg 2 m ResultSrcW [1:0] $end
$var reg 5 n Rs1E [4:0] $end
$var reg 5 o Rs2E [4:0] $end
$var reg 32 p WriteDataM [31:0] $end
$scope module pcreg $end
$var wire 1 + clk $end
$var wire 32 q d [31:0] $end
$var wire 1 , reset $end
$var reg 32 r q [31:0] $end
$upscope $end
$scope module pcadd4 $end
$var wire 32 s a [31:0] $end
$var wire 32 t b [31:0] $end
$var wire 32 u y [31:0] $end
$upscope $end
$scope module c $end
$var wire 3 v ALUControl [2:0] $end
$var wire 2 w ALUOp [1:0] $end
$var wire 1 / ALUSrc $end
$var wire 1 x Branch $end
$var wire 2 y ImmSrc [1:0] $end
$var wire 1 7 Jump $end
$var wire 1 8 MemWrite $end
$var wire 1 z PCSrc $end
$var wire 1 D RegWrite $end
$var wire 2 { ResultSrc [1:0] $end
$var wire 1 | Zero $end
$var wire 3 } funct3 [2:0] $end
$var wire 1 P funct7b5 $end
$var wire 7 ~ op [6:0] $end
$scope module md $end
$var wire 2 !" ALUOp [1:0] $end
$var wire 1 / ALUSrc $end
$var wire 1 x Branch $end
$var wire 2 "" ImmSrc [1:0] $end
$var wire 1 7 Jump $end
$var wire 1 8 MemWrite $end
$var wire 1 D RegWrite $end
$var wire 2 #" ResultSrc [1:0] $end
$var wire 7 $" op [6:0] $end
$var reg 11 %" controls [10:0] $end
$upscope $end
$scope module ad $end
$var wire 3 &" ALUControl [2:0] $end
$var wire 2 '" ALUOp [1:0] $end
$var wire 1 (" RtypeSub $end
$var wire 3 )" funct3 [2:0] $end
$var wire 1 P funct7b5 $end
$var wire 1 *" opb5 $end
$var reg 3 +" ALUControl_reg [2:0] $end
$upscope $end
$upscope $end
$scope module rf $end
$var wire 5 ," a1 [4:0] $end
$var wire 5 -" a2 [4:0] $end
$var wire 5 ." a3 [4:0] $end
$var wire 1 + clk $end
$var wire 32 /" rd1 [31:0] $end
$var wire 32 0" rd2 [31:0] $end
$var wire 32 1" wd3 [31:0] $end
$var wire 1 2" we3 $end
$upscope $end
$scope module ext $end
$var wire 32 3" immext [31:0] $end
$var wire 2 4" immsrc [1:0] $end
$var wire 25 5" instr [31:7] $end
$var reg 32 6" immext_reg [31:0] $end
$upscope $end
$scope module forwardamux $end
$var wire 32 7" d0 [31:0] $end
$var wire 32 8" d1 [31:0] $end
$var wire 32 9" d2 [31:0] $end
$var wire 2 :" s [1:0] $end
$var wire 32 ;" y [31:0] $end
$upscope $end
$scope module forwardbmux $end
$var wire 32 <" d0 [31:0] $end
$var wire 32 =" d1 [31:0] $end
$var wire 32 >" d2 [31:0] $end
$var wire 2 ?" s [1:0] $end
$var wire 32 @" y [31:0] $end
$upscope $end
$scope module srcbmux $end
$var wire 32 A" d0 [31:0] $end
$var wire 32 B" d1 [31:0] $end
$var wire 1 C" s $end
$var wire 32 D" y [31:0] $end
$upscope $end
$scope module alu $end
$var wire 32 E" a [31:0] $end
$var wire 3 F" alucontrol [2:0] $end
$var wire 32 G" b [31:0] $end
$var wire 32 H" condinvb [31:0] $end
$var wire 1 I" isAddSub $end
$var wire 32 J" result [31:0] $end
$var wire 32 K" sum [31:0] $end
$var wire 1 L" v $end
$var wire 1 N zero $end
$var reg 32 M" result_reg [31:0] $end
$upscope $end
$scope module pcaddbranch $end
$var wire 32 N" a [31:0] $end
$var wire 32 O" b [31:0] $end
$var wire 32 P" y [31:0] $end
$upscope $end
$scope module pcmux $end
$var wire 32 Q" d0 [31:0] $end
$var wire 32 R" d1 [31:0] $end
$var wire 1 < s $end
$var wire 32 S" y [31:0] $end
$upscope $end
$scope module resultmux $end
$var wire 32 T" d0 [31:0] $end
$var wire 32 U" d1 [31:0] $end
$var wire 32 V" d2 [31:0] $end
$var wire 2 W" s [1:0] $end
$var wire 32 X" y [31:0] $end
$upscope $end
$upscope $end
$scope module imem $end
$var wire 32 Y" a [31:0] $end
$var wire 32 Z" rd [31:0] $end
$var reg 256 [" memfile [255:0] $end
$upscope $end
$scope module dmem $end
$var wire 32 \" a [31:0] $end
$var wire 1 + clk $end
$var wire 32 ]" rd [31:0] $end
$var wire 32 ^" wd [31:0] $end
$var wire 1 " we $end
$upscope $end
$upscope $end
$upscope $end
$enddefinitions $end
#0
$dumpvars
b0 ^"
bx ]"
b0 \"
b110011001101100011101010111001101101000011010010110111001100111010111110111010001100101011100110111010000101110011011010110010101101101 ["
b10100000000000010010011 Z"
b0 Y"
b0 X"
b0 W"
b0 V"
b0 U"
b0 T"
b100 S"
b0 R"
b100 Q"
b0 P"
b0 O"
b0 N"
b0 M"
0L"
b0 K"
b0 J"
1I"
b0 H"
b0 G"
b0 F"
b0 E"
b0 D"
0C"
b0 B"
b0 A"
b0 @"
b0 ?"
b0 >"
b0 ="
b0 <"
b0 ;"
b0 :"
b0 9"
b0 8"
b0 7"
b0 6"
b0 5"
b0 4"
b0 3"
02"
b0 1"
b0 0"
b0 /"
b0 ."
b0 -"
b0 ,"
b0 +"
0*"
b0 )"
0("
b10 '"
b0 &"
b10010000100 %"
b10011 $"
b0 #"
b0 ""
b10 !"
b10011 ~
b0 }
0|
b0 {
0z
b0 y
0x
b10 w
b0 v
b100 u
b100 t
b0 s
b0 r
b100 q
b0 p
b0 o
b0 n
b0 m
b0 l
b0 k
0j
0i
0h
b0 g
b0 f
b0 e
b0 d
b0 c
b0 b
b0 a
b0 `
b0 _
b0 ^
b0 ]
b0 \
0[
0Z
0Y
b10011 X
b0 W
0V
0U
b0 T
b0 S
b0 R
b10011 Q
0P
b0 O
1N
b0 M
0L
0K
b0 J
b0 I
b0 H
b0 G
b0 F
b0 E
1D
bx C
b0 B
b0 A
b0 @
b0 ?
b0 >
b0 =
0<
b100 ;
b100 :
b0 9
08
07
b10100000000000010010011 6
b0 5
b0 4
b0 3
b0 2
01
00
1/
b0 .
b0 -
1,
1+
b0 *
bx )
b0 (
b10100000000000010010011 '
b0 &
1%
1$
b0 #
0"
b0 !
$end
#5
0$
0+
#10
1$
1+
#15
0$
0+
#20
1$
1+
#22
0%
0,
#25
0$
0+
#30
bx @
bx A
bx 0"
b101 6"
b101 4
b101 3"
b1000 q
b101 H
b101 -"
b1 B
b1010000000000001 5"
b1000 :
b1000 S"
b100001000010001100011 '
b100001000010001100011 6
b100001000010001100011 Z"
bx g
bx U"
1h
1U
1C"
b100 ^
b10100000000000010010011 X
b100 r
b1000 ;
b1000 u
b1000 Q"
b100 (
b100 9
b100 s
b100 Y"
1$
1+
#35
0$
0+
#40
b1 +"
b1 -
b1 v
b1 &"
0D
b10 5
b10 y
b10 ""
b10 4"
0/
1x
b1 w
b1 !"
b1 '"
bx >
b101 M"
0N
b101 .
b101 J"
b1100 q
1*"
b1000001010 %"
bx ?
bx /"
b1000 6"
b1000 4
b1000 3"
b101 K"
b101 H"
bx M
bx @"
bx A"
b1100 :
b1100 S"
b110001100000000000100010011 '
b110001100000000000100010011 6
b110001100000000000100010011 Z"
b1100011 Q
b1100011 ~
b1100011 $"
b1 G
b1 ,"
b1 H
b1 -"
b1000 B
b10000100001000 5"
b101 J
b101 D"
b101 G"
b1000 r
b1100 ;
b1100 u
b1100 Q"
b1000 (
b1000 9
b1000 s
b1000 Y"
b1000 ^
b100 \
b100001000010001100011 X
b1 d
b101 o
b100 _
b101 W
b101 B"
b101 O"
b101 =
b101 P"
b101 R"
bx c
bx <"
1i
1$
1+
#45
0$
0+
#50
11
0L"
b101 M
b101 @"
b101 A"
10
1<
b0 +"
b0 -
b0 v
b0 &"
b10 3
b10 ?"
b10 2
b10 :"
1N
1D
b0 5
b0 y
b0 ""
b0 4"
1/
0x
b10 w
b10 !"
b10 '"
b0 >
b101 I
b101 ;"
b101 E"
b11111111111111111111111111111010 H"
0*"
b10010000100 %"
b0 ?
b0 /"
b1100011 6"
b1100011 4
b1100011 3"
b1100 q
b0 M"
b0 .
b0 J"
b0 K"
b101 J
b101 D"
b101 G"
b10011 Q
b10011 ~
b10011 $"
b0 G
b0 ,"
b11 H
b11 -"
b10 B
b11000110000000000010 5"
b1100 :
b1100 S"
b1100100000000000100010011 '
b1100100000000000100010011 6
b1100100000000000100010011 Z"
1j
12"
b1 e
b100 `
bx p
bx #
bx *
bx ^"
b101 S
b101 !
b101 &
b101 9"
b101 >"
b101 \"
b1000 d
b1 o
b1 n
b1000 _
b1000 W
b1000 B"
b1000 O"
b100 ]
b100 N"
b1100 =
b1100 P"
b1100 R"
bx b
bx 7"
b1 R
b1 F"
1V
0h
0U
0C"
b1100 ^
b1000 \
b110001100000000000100010011 X
b1100 r
b10000 ;
b10000 u
b10000 Q"
b1100 (
b1100 9
b1100 s
b1100 Y"
1$
1+
#55
0$
0+
#60
b0 @
01
b0 A
b0 0"
b0 6"
b0 4
b0 3"
b10000 q
b0 H"
00
0<
b0 J
b0 D"
b0 G"
b0 3
b0 ?"
b0 2
b0 :"
b101 F
b101 1"
b101 8"
b101 ="
b101 X"
b0 H
b0 -"
b0 B
b0 5"
b10000 :
b10000 S"
b0 M"
1N
b0 .
b0 J"
b0 K"
b0 I
b0 ;"
b0 E"
b0 M
b0 @"
b0 A"
b0 ^
b0 \
b10011 X
b0 d
b0 o
b0 n
b0 _
b0 W
b0 B"
b0 O"
b0 ]
b0 N"
b0 =
b0 P"
b0 R"
b0 c
b0 <"
b0 b
b0 7"
b0 R
b0 F"
0V
b1000 e
b1000 `
b101 p
b101 #
b101 *
b101 ^"
b0 S
b0 !
b0 &
b0 9"
b0 >"
b0 \"
0i
b1 f
b1 ."
b100 a
b100 V"
b101 T
b101 T"
1$
1+
#65
0$
0+
#70
bx @
b0 F
b0 1"
b0 8"
b0 ="
b0 X"
bx A
bx 0"
b11001 6"
b11001 4
b11001 3"
b10100 q
b11001 H
b11001 -"
b10 B
b110010000000000010 5"
b10100 :
b10100 S"
b110001000000010001000100011 '
b110001000000010001000100011 6
b110001000000010001000100011 Z"
b1000 f
b1000 ."
b1000 a
b1000 V"
b0 T
b0 T"
0j
02"
b0 e
b0 `
b0 p
b0 #
b0 *
b0 ^"
1h
1U
1C"
b10000 ^
b1100 \
b1100100000000000100010011 X
b10000 r
b10100 ;
b10100 u
b10100 Q"
b10000 (
b10000 9
b10000 s
b10000 Y"
1$
1+
#75
0$
0+
#80
0D
b1 5
b1 y
b1 ""
b1 4"
18
b0 w
b0 !"
b0 '"
b11001 M"
0N
b11001 .
b11001 J"
b11000 q
1*"
b111000000 %"
b0 +"
b0 -
b0 v
b0 &"
b1100100 6"
b1100100 4
b1100100 3"
b11001 K"
b11001 H"
bx M
bx @"
bx A"
b11000 :
b11000 S"
b1100011 '
b1100011 6
b1100011 Z"
b100011 Q
b100011 ~
b100011 $"
b10 O
b10 }
b10 )"
b10 H
b10 -"
b100 B
b11000100000001000100 5"
b11001 J
b11001 D"
b11001 G"
b10100 r
b11000 ;
b11000 u
b11000 Q"
b10100 (
b10100 9
b10100 s
b10100 Y"
b10100 ^
b10000 \
b110001000000010001000100011 X
b10 d
b11001 o
b10000 _
b11001 W
b11001 B"
b11001 O"
b1100 ]
b1100 N"
b100101 =
b100101 P"
b100101 R"
bx c
bx <"
1i
b0 f
b0 ."
b0 a
b0 V"
1$
1+
#85
0$
0+
#90
b11001 M
b11001 @"
b11001 A"
b1 +"
b1 -
b1 v
b1 &"
b10 3
b10 ?"
b1100100 M"
b1100100 .
b1100100 J"
b10 5
b10 y
b10 ""
b10 4"
0/
08
1x
b1 w
b1 !"
b1 '"
b0 @
b1100100 K"
b1100100 H"
b1000001010 %"
b0 A
b0 0"
b0 6"
b0 4
b0 3"
b11100 q
b1100100 J
b1100100 D"
b1100100 G"
b1100011 Q
b1100011 ~
b1100011 $"
b0 O
b0 }
b0 )"
b0 H
b0 -"
b0 B
b0 5"
b11100 :
b11100 S"
bx '
bx 6
bx Z"
1j
12"
b10 e
b10000 `
bx p
bx #
bx *
bx ^"
b11001 S
b11001 !
b11001 &
b11001 9"
b11001 >"
b11001 \"
b100 d
b10 o
b10100 _
b1100100 W
b1100100 B"
b1100100 O"
b10000 ]
b10000 N"
b1110100 =
b1110100 P"
b1110100 R"
0h
1Z
b11000 ^
b10100 \
b1100011 X
b11000 r
b11100 ;
b11100 u
b11100 Q"
b11000 (
b11000 9
b11000 s
b11000 Y"
1$
1+
#95
0$
0+
#100
11
10
1<
1N
b0 J
b0 D"
b0 G"
bx +"
bx -
bx v
bx &"
xz
xD
bx 5
bx y
bx ""
bx 4"
x/
x8
bx E
bx {
bx #"
xx
bx w
bx !"
bx '"
x7
bx >
bx @
b10100 q
x*"
bx %"
x("
bx ?
bx /"
bx A
bx 0"
bx 6"
bx 4
bx 3"
b11111111111111111111111111111111 H"
b0 3
b0 ?"
b11001 F
b11001 1"
b11001 8"
b11001 ="
b11001 X"
b10100 :
b10100 S"
bx Q
bx ~
bx $"
bx O
bx }
bx )"
xP
bx G
bx ,"
bx H
bx -"
bx B
bx 5"
b0 M"
b0 .
b0 J"
b0 K"
b0 M
b0 @"
b0 A"
b11100 r
b100000 ;
b100000 u
b100000 Q"
b11100 (
b11100 9
b11100 s
b11100 Y"
b11100 ^
b11000 \
bx X
b0 d
b0 o
b11000 _
b0 W
b0 B"
b0 O"
b10100 ]
b10100 N"
b10100 =
b10100 P"
b10100 R"
b0 c
b0 <"
b1 R
b1 F"
1V
0U
0C"
0Z
b100 e
b10100 `
b11001 p
b11001 #
b11001 *
b11001 ^"
b1100100 S
b1100100 !
b1100100 &
b1100100 9"
b1100100 >"
b1100100 \"
0i
1[
1"
b10 f
b10 ."
b10000 a
b10000 V"
b11001 T
b11001 T"
1$
1+
#105
0$
0+
#110
0L"
b0 6"
b0 4
b0 3"
0z
01
1D
b0 5
b0 y
b0 ""
b0 4"
1/
08
b0 E
b0 {
b0 #"
0x
b10 w
b10 !"
b10 '"
07
b1100100 F
b1100100 1"
b1100100 8"
b1100100 ="
b1100100 X"
b0 @
b0 >
b11000 q
b0 H"
00
0<
0*"
b10010000100 %"
b0 +"
b0 -
b0 v
b0 &"
0("
b0 ?
b0 /"
b0 A
b0 0"
b11000 :
b11000 S"
b0 M"
1N
b0 .
b0 J"
b0 K"
b10011 Q
b10011 ~
b10011 $"
b0 O
b0 }
b0 )"
0P
b0 G
b0 ,"
b0 H
b0 -"
b0 B
b0 5"
b1100011 '
b1100011 6
b1100011 Z"
bx )
bx C
bx ]"
b100 f
b100 ."
b10100 a
b10100 V"
b1100100 T
b1100100 T"
0j
02"
b0 e
b11000 `
b0 p
b0 #
b0 *
b0 ^"
b0 S
b0 !
b0 &
b0 9"
b0 >"
b0 \"
0[
0"
b0 _
b0 ]
b0 N"
b0 =
b0 P"
b0 R"
b0 R
b0 F"
0V
b0 ^
b0 \
b10011 X
b10100 r
b11000 ;
b11000 u
b11000 Q"
b10100 (
b10100 9
b10100 s
b10100 Y"
1$
1+
#115
0$
0+
#120
b1 +"
b1 -
b1 v
b1 &"
0D
b10 5
b10 y
b10 ""
b10 4"
0/
1x
b1 w
b1 !"
b1 '"
b11100 q
1*"
b1000001010 %"
b0 F
b0 1"
b0 8"
b0 ="
b0 X"
b11100 :
b11100 S"
bx '
bx 6
bx Z"
b1100011 Q
b1100011 ~
b1100011 $"
b11000 r
b11100 ;
b11100 u
b11100 Q"
b11000 (
b11000 9
b11000 s
b11000 Y"
b11000 ^
b10100 \
b1100011 X
1h
1U
1C"
b0 `
b0 f
b0 ."
b11000 a
b11000 V"
b0 T
b0 T"
1$
1+
