build/riscv_pipe.vcd
$date
	Sat Jun 20 10:06:15 2026
$end
$version
	Icarus Verilog
$end
$timescale
	1s
$end
$scope module testbench $end
$var reg 1 ! clk $end
$upscope $end
$scope module testbench $end
$var reg 1 " reset $end
$upscope $end
$scope module testbench $end
$scope module dut $end
$scope module rvcore $end
$var wire 32 # PCF [31:0] $end
$upscope $end
$upscope $end
$upscope $end
$scope module testbench $end
$scope module dut $end
$scope module rvcore $end
$var wire 32 $ RawInstrF [31:0] $end
$upscope $end
$upscope $end
$upscope $end
$scope module testbench $end
$scope module dut $end
$scope module rvcore $end
$var wire 1 % IsCompressedF $end
$upscope $end
$upscope $end
$upscope $end
$scope module testbench $end
$scope module dut $end
$scope module rvcore $end
$var wire 32 & InstrF [31:0] $end
$upscope $end
$upscope $end
$upscope $end
$scope module testbench $end
$scope module dut $end
$scope module rvcore $end
$var reg 32 ' InstrD [31:0] $end
$upscope $end
$upscope $end
$upscope $end
$scope module testbench $end
$scope module dut $end
$scope module rvcore $end
$var reg 32 ( InstrE [31:0] $end
$upscope $end
$upscope $end
$upscope $end
$scope module testbench $end
$scope module dut $end
$scope module rvcore $end
$var reg 32 ) InstrM [31:0] $end
$upscope $end
$upscope $end
$upscope $end
$scope module testbench $end
$scope module dut $end
$scope module rvcore $end
$var reg 32 * InstrW [31:0] $end
$upscope $end
$upscope $end
$upscope $end
$scope module testbench $end
$scope module dut $end
$scope module rvcore $end
$var wire 5 + Rs1D [4:0] $end
$upscope $end
$upscope $end
$upscope $end
$scope module testbench $end
$scope module dut $end
$scope module rvcore $end
$var wire 5 , Rs2D [4:0] $end
$upscope $end
$upscope $end
$upscope $end
$scope module testbench $end
$scope module dut $end
$scope module rvcore $end
$var reg 5 - RdE [4:0] $end
$upscope $end
$upscope $end
$upscope $end
$scope module testbench $end
$scope module dut $end
$scope module rvcore $end
$var reg 5 . Rs1E [4:0] $end
$upscope $end
$upscope $end
$upscope $end
$scope module testbench $end
$scope module dut $end
$scope module rvcore $end
$var reg 5 / Rs2E [4:0] $end
$upscope $end
$upscope $end
$upscope $end
$scope module testbench $end
$scope module dut $end
$scope module rvcore $end
$var reg 2 0 ResultSrcE [1:0] $end
$upscope $end
$upscope $end
$upscope $end
$scope module testbench $end
$scope module dut $end
$scope module rvcore $end
$var wire 1 1 StallF $end
$upscope $end
$upscope $end
$upscope $end
$scope module testbench $end
$scope module dut $end
$scope module rvcore $end
$var wire 1 2 StallD $end
$upscope $end
$upscope $end
$upscope $end
$scope module testbench $end
$scope module dut $end
$scope module rvcore $end
$var wire 1 3 FlushD $end
$upscope $end
$upscope $end
$upscope $end
$scope module testbench $end
$scope module dut $end
$scope module rvcore $end
$var wire 1 4 FlushE $end
$upscope $end
$upscope $end
$upscope $end
$scope module testbench $end
$scope module dut $end
$scope module rvcore $end
$var wire 2 5 ForwardAE [1:0] $end
$upscope $end
$upscope $end
$upscope $end
$scope module testbench $end
$scope module dut $end
$scope module rvcore $end
$var wire 2 6 ForwardBE [1:0] $end
$upscope $end
$upscope $end
$upscope $end
$scope module testbench $end
$scope module dut $end
$scope module rvcore $end
$var wire 32 7 SrcAE [31:0] $end
$upscope $end
$upscope $end
$upscope $end
$scope module testbench $end
$scope module dut $end
$scope module rvcore $end
$var wire 32 8 SrcBE [31:0] $end
$upscope $end
$upscope $end
$upscope $end
$scope module testbench $end
$scope module dut $end
$scope module rvcore $end
$var reg 32 9 ImmExtE [31:0] $end
$upscope $end
$upscope $end
$upscope $end
$scope module testbench $end
$scope module dut $end
$scope module rvcore $end
$var reg 4 : ALUControlE [3:0] $end
$upscope $end
$upscope $end
$upscope $end
$scope module testbench $end
$scope module dut $end
$scope module rvcore $end
$var wire 32 ; ALUResultE [31:0] $end
$upscope $end
$upscope $end
$upscope $end
$scope module testbench $end
$scope module dut $end
$scope module rvcore $end
$var wire 32 < WriteDataE [31:0] $end
$upscope $end
$upscope $end
$upscope $end
$scope module testbench $end
$scope module dut $end
$scope module rvcore $end
$var reg 32 = ALUResultM [31:0] $end
$upscope $end
$upscope $end
$upscope $end
$scope module testbench $end
$scope module dut $end
$scope module rvcore $end
$var reg 32 > WriteDataM [31:0] $end
$upscope $end
$upscope $end
$upscope $end
$scope module testbench $end
$scope module dut $end
$scope module rvcore $end
$var reg 1 ? MemWriteM $end
$upscope $end
$upscope $end
$upscope $end
$scope module testbench $end
$var wire 32 @ DataAdr [31:0] $end
$upscope $end
$scope module testbench $end
$var wire 32 A WriteData [31:0] $end
$upscope $end
$scope module testbench $end
$var wire 1 ? MemWrite $end
$upscope $end
$scope module testbench $end
$scope module dut $end
$scope module rvcore $end
$var wire 32 B ResultW [31:0] $end
$upscope $end
$upscope $end
$upscope $end
$scope module testbench $end
$scope module dut $end
$scope module rvcore $end
$var reg 1 C RegWriteW $end
$upscope $end
$upscope $end
$upscope $end
$scope module testbench $end
$scope module dut $end
$scope module rvcore $end
$var reg 5 D RdW [4:0] $end
$upscope $end
$upscope $end
$upscope $end
$scope module testbench $end
$scope module dut $end
$scope module rvcore $end
$var reg 32 E ReadDataW [31:0] $end
$upscope $end
$upscope $end
$upscope $end
$scope module testbench $end
$scope module dut $end
$scope module rvcore $end
$scope module rf $end
$var reg 32 F \rf[1] [31:0] $end
$upscope $end
$upscope $end
$upscope $end
$upscope $end
$scope module testbench $end
$scope module dut $end
$scope module rvcore $end
$scope module rf $end
$var reg 32 G \rf[2] [31:0] $end
$upscope $end
$upscope $end
$upscope $end
$upscope $end
$scope module testbench $end
$scope module dut $end
$scope module rvcore $end
$scope module rf $end
$var reg 32 H \rf[3] [31:0] $end
$upscope $end
$upscope $end
$upscope $end
$upscope $end
$scope module testbench $end
$scope module dut $end
$scope module rvcore $end
$scope module rf $end
$var reg 32 I \rf[4] [31:0] $end
$upscope $end
$upscope $end
$upscope $end
$upscope $end
$scope module testbench $end
$scope module dut $end
$scope module rvcore $end
$scope module rf $end
$var reg 32 J \rf[5] [31:0] $end
$upscope $end
$upscope $end
$upscope $end
$upscope $end
$scope module testbench $end
$scope module dut $end
$scope module rvcore $end
$scope module rf $end
$var reg 32 K \rf[6] [31:0] $end
$upscope $end
$upscope $end
$upscope $end
$upscope $end
$scope module testbench $end
$scope module dut $end
$scope module rvcore $end
$scope module rf $end
$var reg 32 L \rf[7] [31:0] $end
$upscope $end
$upscope $end
$upscope $end
$upscope $end
$scope module testbench $end
$scope module dut $end
$scope module rvcore $end
$scope module rf $end
$var reg 32 M \rf[8] [31:0] $end
$upscope $end
$upscope $end
$upscope $end
$upscope $end
$scope module testbench $end
$scope module dut $end
$scope module rvcore $end
$scope module rf $end
$var reg 32 N \rf[9] [31:0] $end
$upscope $end
$upscope $end
$upscope $end
$upscope $end
$scope module testbench $end
$scope module dut $end
$scope module rvcore $end
$scope module rf $end
$var reg 32 O \rf[10] [31:0] $end
$upscope $end
$upscope $end
$upscope $end
$upscope $end
$scope module testbench $end
$scope module dut $end
$scope module rvcore $end
$scope module rf $end
$var reg 32 P \rf[11] [31:0] $end
$upscope $end
$upscope $end
$upscope $end
$upscope $end
$enddefinitions $end
$comment Show the parameter values. $end
$dumpall
$end
#0
$dumpvars
bx P
bx O
bx N
bx M
bx L
bx K
bx J
bx I
bx H
bx G
bx F
b0 E
b0 D
0C
b0 B
b0 A
b0 @
0?
b0 >
b0 =
b0 <
b0 ;
b0 :
b0 9
b0 8
b0 7
b0 6
b0 5
04
03
02
01
b0 0
b0 /
b0 .
b0 -
b0 ,
b0 +
b10011 *
b10011 )
b10011 (
b10011 '
b1111000000000000000100010011 &
0%
b1111000000000000000100010011 $
b0 #
1"
1!
$end
#5
0!
#10
1!
#15
0!
#20
1!
#22
0"
#25
0!
#30
b10000000000010100010011 $
b10000000000010100010011 &
b10000 ,
bx E
b1111000000000000000100010011 '
b100 #
1!
#35
0!
#40
b110000000000000011101111 $
b110000000000000011101111 &
b11110000 ;
bx <
b100 ,
b11110000 8
b1000 #
b10000000000010100010011 '
b10 -
b10000 /
b11110000 9
b1111000000000000000100010011 (
1!
#45
0!
#50
b100 ;
b110101000000010001000100011 $
b110101000000010001000100011 &
b100 8
b1100 ,
1C
b1111000000000000000100010011 )
bx >
bx A
b11110000 =
b11110000 @
b1010 -
b100 /
b100 9
b10000000000010100010011 (
b110000000000000011101111 '
b1100 #
1!
#55
0!
#60
b1100011 $
b1100011 &
bx ;
14
b11110000 B
b1010 ,
13
bx 8
b10000 #
b110101000000010001000100011 '
b1 -
b1100 /
b1100 9
b110000000000000011101111 (
b10 0
b10000000000010100010011 )
b100 =
b100 @
b10 D
b1111000000000000000100010011 *
1!
#65
0!
#70
b0 ;
b0 8
b11111111010000010000000100010011 $
b11111111010000010000000100010011 &
b100 B
b0 <
04
03
b0 ,
b11110000 G
b1010 D
b10000000000010100010011 *
b110000000000000011101111 )
bx =
bx @
b0 -
b0 /
b0 9
b10011 (
b0 0
b10011 '
b10100 #
1!
#75
0!
#80
b100010010010000100011 $
b100010010010000100011 &
b1100 B
b10 +
b10100 ,
b100 O
b11000 #
b11111111010000010000000100010011 '
b10011 )
b0 >
b0 A
b0 =
b0 @
b1 D
b110000000000000011101111 *
1!
#85
0!
#90
b101000010010001000100011 $
b101000010010001000100011 &
b11100100 ;
bx <
b11110000 7
b0 B
b11111111111111111111111111110100 8
b1 ,
b1100 F
b0 D
b10011 *
0C
b10 -
b10100 /
b10 .
b11111111111111111111111111110100 9
b11111111010000010000000100010011 (
b100010010010000100011 '
b11100 #
1!
#95
0!
#100
b11100100 7
b1000000000001010010011 $
b1000000000001010010011 &
b11101100 ;
b10 5
b1100 <
b1010 ,
b1000 8
b100000 #
b101000010010001000100011 '
b1000 -
b1 /
b1000 9
b100010010010000100011 (
b11111111010000010000000100010011 )
bx >
bx A
b11100100 =
b11100100 @
1C
1!
#105
0!
#110
b10010101010100100001100011 $
b10010101010100100001100011 &
b11100100 B
b1 5
b11101000 ;
b100 <
b11100100 7
b100 8
b0 +
b10 ,
b10 D
b11111111010000010000000100010011 *
b100010010010000100011 )
b1100 >
b1100 A
b11101100 =
b11101100 @
1?
b100 -
b1010 /
b100 9
b101000010010001000100011 (
b1000000000001010010011 '
b100100 #
1!
#115
0!
#120
b0 7
b11111111111101010000010100010011 $
b11111111111101010000010100010011 &
b10 ;
b0 5
b11100100 <
b11101100 B
b1010 +
b101 ,
b10 8
b11100100 G
b101000 #
b10010101010100100001100011 '
b101 -
b10 /
b0 .
b10 9
b1000000000001010010011 (
b101000010010001000100011 )
b100 >
b100 A
b11101000 =
b11101000 @
b1000 D
b100010010010000100011 *
0C
1!
#125
0!
#130
04
03
b10 6
b10 ;
b11111110100111111111000011101111 $
b11111110100111111111000011101111 &
b11101000 B
b10 <
b100 7
b10 8
b11111 ,
b100 D
b101000010010001000100011 *
b1000000000001010010011 )
b11100100 >
b11100100 A
b10 =
b10 @
0?
b10000 -
b101 /
b1010 .
b110000 9
b10010101010100100001100011 (
b1 :
b11111111111101010000010100010011 '
b101100 #
1!
#135
0!
#140
bx <
b101000010010000000100011 $
b101000010010000000100011 &
b11 ;
b0 6
b10 B
b11111 +
b1001 ,
b11111111111111111111111111111111 8
b110000 #
b11111110100111111111000011101111 '
b1010 -
b11111 /
b11111111111111111111111111111111 9
b11111111111101010000010100010011 (
b0 :
b10010101010100100001100011 )
b10 >
b10 A
b101 D
b1000000000001010010011 *
1C
1!
#145
0!
#150
bx ;
b10000010010010100000011 $
b10000010010010100000011 &
bx 7
14
13
bx 8
b10 +
b1010 ,
b10 J
b10000 D
b10010101010100100001100011 *
0C
b11111111111101010000010100010011 )
bx >
bx A
b11 =
b11 @
b1 -
b1001 /
b11111 .
b11111111111111111111111111101000 9
b11111110100111111111000011101111 (
b10 0
b101000010010000000100011 '
b110100 #
1!
#155
0!
#160
b0 ;
b11111111010000010000000100010011 $
b11111111010000010000000100010011 &
b0 8
b0 <
b0 7
04
b11 B
b0 +
b0 ,
03
b10100 #
b10011 '
b0 -
b0 /
b0 .
b0 9
b10011 (
b0 0
b11111110100111111111000011101111 )
bx =
bx @
b1010 D
b11111111111101010000010100010011 *
1C
1!
#165
0!
#170
b100010010010000100011 $
b100010010010000100011 &
b110000 B
b10 +
b10100 ,
b11 O
b1 D
b11111110100111111111000011101111 *
b10011 )
b0 >
b0 A
b0 =
b0 @
b11111111010000010000000100010011 '
b11000 #
1!
#175
0!
#180
b101000010010001000100011 $
b101000010010001000100011 &
b11011000 ;
bx <
b11100100 7
b1 ,
b11111111111111111111111111110100 8
b0 B
b110000 F
b11100 #
b100010010010000100011 '
b10 -
b10100 /
b10 .
b11111111111111111111111111110100 9
b11111111010000010000000100010011 (
b0 D
b10011 *
0C
1!
#185
0!
#190
b11011000 7
b10 5
b11100000 ;
b1000000000001010010011 $
b1000000000001010010011 &
b110000 <
b1000 8
b1010 ,
1C
b11111111010000010000000100010011 )
bx >
bx A
b11011000 =
b11011000 @
b1000 -
b1 /
b1000 9
b100010010010000100011 (
b101000010010001000100011 '
b100000 #
1!
#195
0!
#200
b10010101010100100001100011 $
b10010101010100100001100011 &
b11 <
b11011100 ;
b1 5
b11011000 B
b0 +
b10 ,
b100 8
b11011000 7
b100100 #
b1000000000001010010011 '
b100 -
b1010 /
b100 9
b101000010010001000100011 (
b100010010010000100011 )
b110000 >
b110000 A
b11100000 =
b11100000 @
1?
b10 D
b11111111010000010000000100010011 *
1!
#205
0!
#210
b0 7
b0 5
b10 ;
b11111111111101010000010100010011 $
b11111111111101010000010100010011 &
b11100000 B
b11011000 <
b10 8
b1010 +
b101 ,
b11011000 G
b1000 D
b100010010010000100011 *
0C
b101000010010001000100011 )
b11 >
b11 A
b11011100 =
b11011100 @
b101 -
b10 /
b0 .
b10 9
b1000000000001010010011 (
b10010101010100100001100011 '
b101000 #
1!
#215
0!
#220
04
03
b11111110100111111111000011101111 $
b11111110100111111111000011101111 &
b10 6
b1 ;
b10 <
b11 7
b11011100 B
b11111 ,
b10 8
b101100 #
b11111111111101010000010100010011 '
b10000 -
b101 /
b1010 .
b110000 9
b10010101010100100001100011 (
b1 :
b1000000000001010010011 )
b11011000 >
b11011000 A
b10 =
b10 @
0?
b100 D
b101000010010001000100011 *
1!
#225
0!
#230
b10 ;
b101000010010000000100011 $
b101000010010000000100011 &
b10 B
b0 6
bx <
b11111111111111111111111111111111 8
b11111 +
b1001 ,
b101 D
b1000000000001010010011 *
1C
b10010101010100100001100011 )
b10 >
b10 A
b1 =
b1 @
b1010 -
b11111 /
b11111111111111111111111111111111 9
b11111111111101010000010100010011 (
b0 :
b11111110100111111111000011101111 '
b110000 #
1!
#235
0!
#240
b10000010010010100000011 $
b10000010010010100000011 &
bx ;
bx 7
14
b1 B
b10 +
b1010 ,
13
bx 8
b10 J
b110100 #
b101000010010000000100011 '
b1 -
b1001 /
b11111 .
b11111111111111111111111111101000 9
b11111110100111111111000011101111 (
b10 0
b11111111111101010000010100010011 )
bx >
bx A
b10 =
b10 @
b10000 D
b10010101010100100001100011 *
0C
1!
#245
0!
#250
b0 ;
b0 8
b11111111010000010000000100010011 $
b11111111010000010000000100010011 &
b10 B
b0 <
b0 7
04
03
b0 +
b0 ,
b1010 D
b11111111111101010000010100010011 *
1C
b11111110100111111111000011101111 )
bx =
bx @
b0 -
b0 /
b0 .
b0 9
b10011 (
b0 0
b10011 '
b10100 #
1!
#255
0!
#260
b100010010010000100011 $
b100010010010000100011 &
b110000 B
b10 +
b10100 ,
b10 O
b11000 #
b11111111010000010000000100010011 '
b10011 )
b0 >
b0 A
b0 =
b0 @
b1 D
b11111110100111111111000011101111 *
1!
#265
0!
#270
b101000010010001000100011 $
b101000010010001000100011 &
b11001100 ;
bx <
b11011000 7
b0 B
b11111111111111111111111111110100 8
b1 ,
b110000 F
b0 D
b10011 *
0C
b10 -
b10100 /
b10 .
b11111111111111111111111111110100 9
b11111111010000010000000100010011 (
b100010010010000100011 '
b11100 #
1!
#275
0!
#280
b11001100 7
b1000000000001010010011 $
b1000000000001010010011 &
b11010100 ;
b10 5
b110000 <
b1010 ,
b1000 8
b100000 #
b101000010010001000100011 '
b1000 -
b1 /
b1000 9
b100010010010000100011 (
b11111111010000010000000100010011 )
bx >
bx A
b11001100 =
b11001100 @
1C
1!
#285
0!
#290
b10010101010100100001100011 $
b10010101010100100001100011 &
b11001100 B
b1 5
b11010000 ;
b10 <
b11001100 7
b100 8
b0 +
b10 ,
b10 D
b11111111010000010000000100010011 *
b100010010010000100011 )
b110000 >
b110000 A
b11010100 =
b11010100 @
1?
b100 -
b1010 /
b100 9
b101000010010001000100011 (
b1000000000001010010011 '
b100100 #
1!
#295
0!
#300
b0 7
b11111111111101010000010100010011 $
b11111111111101010000010100010011 &
b10 ;
b0 5
b11001100 <
b11010100 B
b1010 +
b101 ,
b10 8
b11001100 G
b101000 #
b10010101010100100001100011 '
b101 -
b10 /
b0 .
b10 9
b1000000000001010010011 (
b101000010010001000100011 )
b10 >
b10 A
b11010000 =
b11010000 @
b1000 D
b100010010010000100011 *
0C
1!
#305
0!
#310
04
03
b10 6
b0 ;
b11111110100111111111000011101111 $
b11111110100111111111000011101111 &
b11010000 B
b10 <
b10 7
b10 8
b11111 ,
b100 D
b101000010010001000100011 *
b1000000000001010010011 )
b11001100 >
b11001100 A
b10 =
b10 @
0?
b10000 -
b101 /
b1010 .
b110000 9
b10010101010100100001100011 (
b1 :
b11111111111101010000010100010011 '
b101100 #
1!
#315
0!
#320
b101000010010000000100011 $
b101000010010000000100011 &
b1 ;
b0 6
b10 B
b11111 +
b1001 ,
b11111111111111111111111111111111 8
bx <
b110000 #
b11111110100111111111000011101111 '
b1010 -
b11111 /
b11111111111111111111111111111111 9
b11111111111101010000010100010011 (
b0 :
b10010101010100100001100011 )
b10 >
b10 A
b0 =
b0 @
b101 D
b1000000000001010010011 *
1C
1!
#325
0!
#330
bx ;
b10000010010010100000011 $
b10000010010010100000011 &
b0 B
bx 7
14
13
bx 8
b10 +
b1010 ,
b10 J
b10000 D
b10010101010100100001100011 *
0C
b11111111111101010000010100010011 )
bx >
bx A
b1 =
b1 @
b1 -
b1001 /
b11111 .
b11111111111111111111111111101000 9
b11111110100111111111000011101111 (
b10 0
b101000010010000000100011 '
b110100 #
1!
#335
0!
#340
b0 ;
b11111111010000010000000100010011 $
b11111111010000010000000100010011 &
b0 8
b0 <
b0 7
04
b1 B
b0 +
b0 ,
03
b10100 #
b10011 '
b0 -
b0 /
b0 .
b0 9
b10011 (
b0 0
b11111110100111111111000011101111 )
bx =
bx @
b1010 D
b11111111111101010000010100010011 *
1C
1!
#345
0!
#350
b100010010010000100011 $
b100010010010000100011 &
b110000 B
b10 +
b10100 ,
b1 O
b1 D
b11111110100111111111000011101111 *
b10011 )
b0 >
b0 A
b0 =
b0 @
b11111111010000010000000100010011 '
b11000 #
1!
#355
0!
#360
b101000010010001000100011 $
b101000010010001000100011 &
b11000000 ;
bx <
b11001100 7
b1 ,
b11111111111111111111111111110100 8
b0 B
b110000 F
b11100 #
b100010010010000100011 '
b10 -
b10100 /
b10 .
b11111111111111111111111111110100 9
b11111111010000010000000100010011 (
b0 D
b10011 *
0C
1!
#365
0!
#370
b11000000 7
b10 5
b11001000 ;
b1000000000001010010011 $
b1000000000001010010011 &
b110000 <
b1000 8
b1010 ,
1C
b11111111010000010000000100010011 )
bx >
bx A
b11000000 =
b11000000 @
b1000 -
b1 /
b1000 9
b100010010010000100011 (
b101000010010001000100011 '
b100000 #
1!
#375
0!
#380
b10010101010100100001100011 $
b10010101010100100001100011 &
b1 <
b11000100 ;
b1 5
b11000000 B
b0 +
b10 ,
b100 8
b11000000 7
b100100 #
b1000000000001010010011 '
b100 -
b1010 /
b100 9
b101000010010001000100011 (
b100010010010000100011 )
b110000 >
b110000 A
b11001000 =
b11001000 @
1?
b10 D
b11111111010000010000000100010011 *
1!
#385
0!
#390
b0 7
b0 5
b10 ;
b11111111111101010000010100010011 $
b11111111111101010000010100010011 &
b11001000 B
b11000000 <
b10 8
b1010 +
b101 ,
b11000000 G
b1000 D
b100010010010000100011 *
0C
b101000010010001000100011 )
b1 >
b1 A
b11000100 =
b11000100 @
b101 -
b10 /
b0 .
b10 9
b1000000000001010010011 (
b10010101010100100001100011 '
b101000 #
1!
#395
0!
#400
14
13
b11111110100111111111000011101111 $
b11111110100111111111000011101111 &
b10 6
b11111111111111111111111111111111 ;
b10 <
b1 7
b11000100 B
b11111 ,
b10 8
b101100 #
b11111111111101010000010100010011 '
b10000 -
b101 /
b1010 .
b110000 9
b10010101010100100001100011 (
b1 :
b1000000000001010010011 )
b11000000 >
b11000000 A
b10 =
b10 @
0?
b100 D
b101000010010001000100011 *
1!
#405
0!
#410
b0 ;
04
b100000010010000010000011 $
b100000010010000010000011 &
b10 B
b0 8
b0 6
b0 7
03
b0 <
b0 +
b0 ,
b101 D
b1000000000001010010011 *
1C
b10010101010100100001100011 )
b10 >
b10 A
b11111111111111111111111111111111 =
b11111111111111111111111111111111 @
b0 -
b0 /
b0 .
b0 9
b10011 (
b0 :
b10011 '
b1010100 #
1!
#415
0!
#420
b110000010000000100010011 $
b110000010000000100010011 &
b11111111111111111111111111111111 B
b10 +
b1000 ,
b10 J
b1011000 #
b100000010010000010000011 '
b10011 )
b0 >
b0 A
b0 =
b0 @
b10000 D
b10010101010100100001100011 *
0C
1!
#425
0!
#430
b1000000001100111 $
b1000000001100111 &
b0 B
b11001000 ;
bx <
b11000000 7
b1000 8
b1100 ,
b0 D
b10011 *
b1 -
b1000 /
b10 .
b1000 9
b100000010010000010000011 (
b1 0
b110000010000000100010011 '
b1011100 #
1!
#435
0!
#440
bx $
bx &
b11001100 ;
x%
b1 +
b0 ,
b1100 8
b1100000 #
b1000000001100111 '
b10 -
b1100 /
b1100 9
b110000010000000100010011 (
b0 0
b100000010010000010000011 )
bx >
bx A
b11001000 =
b11001000 @
1C
1!
#445
0!
#450
b1 5
b110000 B
b110000 ;
b0 <
b110000 7
14
b0 8
13
bx +
bx ,
b1 D
b110000 E
b100000010010000010000011 *
b110000010000000100010011 )
b11001100 =
b11001100 @
b0 -
b0 /
b1 .
b0 9
b1000000001100111 (
b10 0
bx '
bx #
1!
#455
0!
#460
b0 ;
b0 5
b0 7
b101000010010000000100011 $
b101000010010000000100011 &
0%
04
b11001100 B
b0 +
b0 ,
03
b110000 F
b110000 #
b10011 '
b0 .
b10011 (
b0 0
b1000000001100111 )
b0 >
b0 A
b110000 =
b110000 @
b10 D
bx E
b110000010000000100010011 *
1!
#465
0!
#470
b10000010010010100000011 $
b10000010010010100000011 &
b1100000 B
b10 +
b1010 ,
b11001100 G
b0 D
b1000000001100111 *
b10011 )
b0 =
b0 @
b101000010010000000100011 '
b110100 #
1!
#475
0!
#480
b11111111111001010000010100010011 $
b11111111111001010000010100010011 &
b11001100 ;
b1 <
b11001100 7
b100 ,
b0 B
b111000 #
b10000010010010100000011 '
b1010 /
b10 .
b101000010010000000100011 (
b10011 *
0C
1!
#485
0!
#490
b11010000 ;
14
b11111101100111111111000011101111 $
b11111101100111111111000011101111 &
bx <
11
12
b100 8
b1010 +
b11110 ,
1C
b101000010010000000100011 )
b1 >
b1 A
b11001100 =
b11001100 @
1?
b1010 -
b100 /
b100 9
b10000010010010100000011 (
b1 0
b11111111111001010000010100010011 '
b111100 #
1!
#495
0!
#500
b0 ;
04
b0 <
b0 7
01
02
b11001100 B
b0 8
b0 -
b0 /
b0 .
b0 9
b10011 (
b0 0
b10000010010010100000011 )
bx >
bx A
b11010000 =
b11010000 @
0?
b101000010010000000100011 *
0C
1!
#505
0!
#510
b1 5
b0 ;
b10010001100000011 $
b10010001100000011 &
b10 B
bx <
b10 7
b11111111111111111111111111111110 8
b11111 +
b11001 ,
b1010 D
b10 E
b10000010010010100000011 *
1C
b10011 )
b0 >
b0 A
b0 =
b0 @
b1010 -
b11110 /
b1010 .
b11111111111111111111111111111110 9
b11111111111001010000010100010011 (
b11111101100111111111000011101111 '
b1000000 #
1!
#515
0!
#520
bx 7
b11001010000010100110011 $
b11001010000010100110011 &
bx ;
b0 5
14
b0 B
b10 +
b0 ,
13
bx 8
b10 O
b1000100 #
b10010001100000011 '
b1 -
b11001 /
b11111 .
b11111111111111111111111111011000 9
b11111101100111111111000011101111 (
b10 0
b11111111111001010000010100010011 )
bx >
bx A
b0 D
bx E
b10011 *
0C
1!
#525
0!
#530
b0 ;
b0 8
b11111111010000010000000100010011 $
b11111111010000010000000100010011 &
b0 <
b0 7
04
03
b0 +
b1010 D
b11111111111001010000010100010011 *
1C
b11111101100111111111000011101111 )
bx =
bx @
b0 -
b0 /
b0 .
b0 9
b10011 (
b0 0
b10011 '
b10100 #
1!
#535
0!
#540
b100010010010000100011 $
b100010010010000100011 &
b1000000 B
b10 +
b10100 ,
b0 O
b11000 #
b11111111010000010000000100010011 '
b10011 )
b0 >
b0 A
b0 =
b0 @
b1 D
b11111101100111111111000011101111 *
1!
#545
0!
#550
b101000010010001000100011 $
b101000010010001000100011 &
b11000000 ;
bx <
b11001100 7
b0 B
b11111111111111111111111111110100 8
b1 ,
b1000000 F
b0 D
b10011 *
0C
b10 -
b10100 /
b10 .
b11111111111111111111111111110100 9
b11111111010000010000000100010011 (
b100010010010000100011 '
b11100 #
1!
#555
0!
#560
b11000000 7
b1000000000001010010011 $
b1000000000001010010011 &
b11001000 ;
b10 5
b1000000 <
b1010 ,
b1000 8
b100000 #
b101000010010001000100011 '
b1000 -
b1 /
b1000 9
b100010010010000100011 (
b11111111010000010000000100010011 )
bx >
bx A
b11000000 =
b11000000 @
1C
1!
#565
0!
#570
b10010101010100100001100011 $
b10010101010100100001100011 &
b11000000 B
b1 5
b11000100 ;
b0 <
b11000000 7
b100 8
b0 +
b10 ,
b10 D
b11111111010000010000000100010011 *
b100010010010000100011 )
b1000000 >
b1000000 A
b11001000 =
b11001000 @
1?
b100 -
b1010 /
b100 9
b101000010010001000100011 (
b1000000000001010010011 '
b100100 #
1!
#575
0!
#580
b0 7
b11111111111101010000010100010011 $
b11111111111101010000010100010011 &
b10 ;
b0 5
b11000000 <
b11001000 B
b1010 +
b101 ,
b10 8
b11000000 G
b101000 #
b10010101010100100001100011 '
b101 -
b10 /
b0 .
b10 9
b1000000000001010010011 (
b101000010010001000100011 )
b0 >
b0 A
b11000100 =
b11000100 @
b1000 D
b110000 E
b100010010010000100011 *
0C
1!
#585
0!
#590
14
13
b10 6
b11111111111111111111111111111110 ;
b11111110100111111111000011101111 $
b11111110100111111111000011101111 &
b11000100 B
b10 <
b10 8
b11111 ,
b100 D
b1 E
b101000010010001000100011 *
b1000000000001010010011 )
b11000000 >
b11000000 A
b10 =
b10 @
0?
b10000 -
b101 /
b1010 .
b110000 9
b10010101010100100001100011 (
b1 :
b11111111111101010000010100010011 '
b101100 #
1!
#595
0!
#600
b0 ;
b100000010010000010000011 $
b100000010010000010000011 &
04
03
b0 8
b0 6
b10 B
b0 +
b0 ,
b0 <
b1010100 #
b10011 '
b0 -
b0 /
b0 .
b0 9
b10011 (
b0 :
b10010101010100100001100011 )
b10 >
b10 A
b11111111111111111111111111111110 =
b11111111111111111111111111111110 @
b101 D
bx E
b1000000000001010010011 *
1C
1!
#605
0!
#610
b110000010000000100010011 $
b110000010000000100010011 &
b11111111111111111111111111111110 B
b10 +
b1000 ,
b10 J
b10000 D
b10010101010100100001100011 *
0C
b10011 )
b0 >
b0 A
b0 =
b0 @
b100000010010000010000011 '
b1011000 #
1!
#615
0!
#620
b1000000001100111 $
b1000000001100111 &
b11001000 ;
bx <
b11000000 7
b0 B
b1100 ,
b1000 8
b1011100 #
b110000010000000100010011 '
b1 -
b1000 /
b10 .
b1000 9
b100000010010000010000011 (
b1 0
b0 D
b10011 *
1!
#625
0!
#630
b11001100 ;
bx $
bx &
x%
b1100 8
b1 +
b0 ,
1C
b100000010010000010000011 )
bx >
bx A
b11001000 =
b11001000 @
b10 -
b1100 /
b1100 9
b110000010000000100010011 (
b0 0
b1000000001100111 '
b1100000 #
1!
#635
0!
#640
b1 5
b1000000 ;
b0 <
b1000000 7
14
b1000000 B
bx +
bx ,
b0 8
13
bx #
bx '
b0 -
b0 /
b1 .
b0 9
b1000000001100111 (
b10 0
b110000010000000100010011 )
b11001100 =
b11001100 @
b1 D
b1000000 E
b100000010010000010000011 *
1!
#645
0!
#650
b0 ;
b0 7
b0 5
b10010001100000011 $
b10010001100000011 &
b11001100 B
04
0%
03
b0 +
b0 ,
b1000000 F
b10 D
b1 E
b110000010000000100010011 *
b1000000001100111 )
b0 >
b0 A
b1000000 =
b1000000 @
b0 .
b10011 (
b0 0
b10011 '
b1000000 #
1!
#655
0!
#660
b11001010000010100110011 $
b11001010000010100110011 &
b1100000 B
b10 +
b11001100 G
b1000100 #
b10010001100000011 '
b10011 )
b0 =
b0 @
b0 D
bx E
b1000000001100111 *
1!
#665
0!
#670
b11001100 ;
14
b100000010010000010000011 $
b100000010010000010000011 &
b11001100 7
11
12
b0 B
b1010 +
b110 ,
b10011 *
0C
b110 -
b10 .
b10010001100000011 (
b1 0
b11001010000010100110011 '
b1001000 #
1!
#675
0!
#680
b0 ;
04
b0 7
01
02
b0 -
b0 .
b10011 (
b0 0
b10010001100000011 )
b11001100 =
b11001100 @
1C
1!
#685
0!
#690
b1 ;
b1 6
b1 8
b110000010000000100010011 $
b110000010000000100010011 &
b1 B
b1 <
b10 +
b1000 ,
b110 D
b1 E
b10010001100000011 *
b10011 )
b0 =
b0 @
b1010 -
b110 /
b1010 .
bx 9
b11001010000010100110011 (
b100000010010000010000011 '
b1001100 #
1!
#695
0!
