build/riscv_pipe.vcd
$date
	Fri Jun 19 15:32:22 2026
$end
$version
	Icarus Verilog
$end
$timescale
	1s
$end
$scope module testbench $end
$var reg 1 ! clk $end
$upscope $end
$scope module testbench $end
$var reg 1 " reset $end
$upscope $end
$scope module testbench $end
$scope module dut $end
$scope module rvcore $end
$var wire 32 # PCF [31:0] $end
$upscope $end
$upscope $end
$upscope $end
$scope module testbench $end
$scope module dut $end
$scope module rvcore $end
$var wire 32 $ RawInstrF [31:0] $end
$upscope $end
$upscope $end
$upscope $end
$scope module testbench $end
$scope module dut $end
$scope module rvcore $end
$var wire 1 % IsCompressedF $end
$upscope $end
$upscope $end
$upscope $end
$scope module testbench $end
$scope module dut $end
$scope module rvcore $end
$var wire 32 & InstrF [31:0] $end
$upscope $end
$upscope $end
$upscope $end
$scope module testbench $end
$scope module dut $end
$scope module rvcore $end
$var reg 32 ' InstrD [31:0] $end
$upscope $end
$upscope $end
$upscope $end
$scope module testbench $end
$scope module dut $end
$scope module rvcore $end
$var reg 32 ( InstrE [31:0] $end
$upscope $end
$upscope $end
$upscope $end
$scope module testbench $end
$scope module dut $end
$scope module rvcore $end
$var reg 32 ) InstrM [31:0] $end
$upscope $end
$upscope $end
$upscope $end
$scope module testbench $end
$scope module dut $end
$scope module rvcore $end
$var reg 32 * InstrW [31:0] $end
$upscope $end
$upscope $end
$upscope $end
$scope module testbench $end
$scope module dut $end
$scope module rvcore $end
$var wire 5 + Rs1D [4:0] $end
$upscope $end
$upscope $end
$upscope $end
$scope module testbench $end
$scope module dut $end
$scope module rvcore $end
$var wire 5 , Rs2D [4:0] $end
$upscope $end
$upscope $end
$upscope $end
$scope module testbench $end
$scope module dut $end
$scope module rvcore $end
$var reg 5 - RdE [4:0] $end
$upscope $end
$upscope $end
$upscope $end
$scope module testbench $end
$scope module dut $end
$scope module rvcore $end
$var reg 5 . Rs1E [4:0] $end
$upscope $end
$upscope $end
$upscope $end
$scope module testbench $end
$scope module dut $end
$scope module rvcore $end
$var reg 5 / Rs2E [4:0] $end
$upscope $end
$upscope $end
$upscope $end
$scope module testbench $end
$scope module dut $end
$scope module rvcore $end
$var reg 2 0 ResultSrcE [1:0] $end
$upscope $end
$upscope $end
$upscope $end
$scope module testbench $end
$scope module dut $end
$scope module rvcore $end
$var wire 1 1 StallF $end
$upscope $end
$upscope $end
$upscope $end
$scope module testbench $end
$scope module dut $end
$scope module rvcore $end
$var wire 1 2 StallD $end
$upscope $end
$upscope $end
$upscope $end
$scope module testbench $end
$scope module dut $end
$scope module rvcore $end
$var wire 1 3 FlushD $end
$upscope $end
$upscope $end
$upscope $end
$scope module testbench $end
$scope module dut $end
$scope module rvcore $end
$var wire 1 4 FlushE $end
$upscope $end
$upscope $end
$upscope $end
$scope module testbench $end
$scope module dut $end
$scope module rvcore $end
$var wire 2 5 ForwardAE [1:0] $end
$upscope $end
$upscope $end
$upscope $end
$scope module testbench $end
$scope module dut $end
$scope module rvcore $end
$var wire 2 6 ForwardBE [1:0] $end
$upscope $end
$upscope $end
$upscope $end
$scope module testbench $end
$scope module dut $end
$scope module rvcore $end
$var wire 32 7 SrcAE [31:0] $end
$upscope $end
$upscope $end
$upscope $end
$scope module testbench $end
$scope module dut $end
$scope module rvcore $end
$var wire 32 8 SrcBE [31:0] $end
$upscope $end
$upscope $end
$upscope $end
$scope module testbench $end
$scope module dut $end
$scope module rvcore $end
$var reg 32 9 ImmExtE [31:0] $end
$upscope $end
$upscope $end
$upscope $end
$scope module testbench $end
$scope module dut $end
$scope module rvcore $end
$var reg 4 : ALUControlE [3:0] $end
$upscope $end
$upscope $end
$upscope $end
$scope module testbench $end
$scope module dut $end
$scope module rvcore $end
$var wire 32 ; ALUResultE [31:0] $end
$upscope $end
$upscope $end
$upscope $end
$scope module testbench $end
$scope module dut $end
$scope module rvcore $end
$var wire 32 < WriteDataE [31:0] $end
$upscope $end
$upscope $end
$upscope $end
$scope module testbench $end
$scope module dut $end
$scope module rvcore $end
$var reg 32 = ALUResultM [31:0] $end
$upscope $end
$upscope $end
$upscope $end
$scope module testbench $end
$scope module dut $end
$scope module rvcore $end
$var reg 32 > WriteDataM [31:0] $end
$upscope $end
$upscope $end
$upscope $end
$scope module testbench $end
$scope module dut $end
$scope module rvcore $end
$var reg 1 ? MemWriteM $end
$upscope $end
$upscope $end
$upscope $end
$scope module testbench $end
$var wire 32 @ DataAdr [31:0] $end
$upscope $end
$scope module testbench $end
$var wire 32 A WriteData [31:0] $end
$upscope $end
$scope module testbench $end
$var wire 1 ? MemWrite $end
$upscope $end
$scope module testbench $end
$scope module dut $end
$scope module rvcore $end
$var wire 32 B ResultW [31:0] $end
$upscope $end
$upscope $end
$upscope $end
$scope module testbench $end
$scope module dut $end
$scope module rvcore $end
$var reg 1 C RegWriteW $end
$upscope $end
$upscope $end
$upscope $end
$scope module testbench $end
$scope module dut $end
$scope module rvcore $end
$var reg 5 D RdW [4:0] $end
$upscope $end
$upscope $end
$upscope $end
$scope module testbench $end
$scope module dut $end
$scope module rvcore $end
$var reg 32 E ReadDataW [31:0] $end
$upscope $end
$upscope $end
$upscope $end
$scope module testbench $end
$scope module dut $end
$scope module rvcore $end
$scope module rf $end
$var reg 32 F \rf[1] [31:0] $end
$upscope $end
$upscope $end
$upscope $end
$upscope $end
$scope module testbench $end
$scope module dut $end
$scope module rvcore $end
$scope module rf $end
$var reg 32 G \rf[2] [31:0] $end
$upscope $end
$upscope $end
$upscope $end
$upscope $end
$scope module testbench $end
$scope module dut $end
$scope module rvcore $end
$scope module rf $end
$var reg 32 H \rf[3] [31:0] $end
$upscope $end
$upscope $end
$upscope $end
$upscope $end
$scope module testbench $end
$scope module dut $end
$scope module rvcore $end
$scope module rf $end
$var reg 32 I \rf[4] [31:0] $end
$upscope $end
$upscope $end
$upscope $end
$upscope $end
$scope module testbench $end
$scope module dut $end
$scope module rvcore $end
$scope module rf $end
$var reg 32 J \rf[5] [31:0] $end
$upscope $end
$upscope $end
$upscope $end
$upscope $end
$scope module testbench $end
$scope module dut $end
$scope module rvcore $end
$scope module rf $end
$var reg 32 K \rf[6] [31:0] $end
$upscope $end
$upscope $end
$upscope $end
$upscope $end
$scope module testbench $end
$scope module dut $end
$scope module rvcore $end
$scope module rf $end
$var reg 32 L \rf[7] [31:0] $end
$upscope $end
$upscope $end
$upscope $end
$upscope $end
$scope module testbench $end
$scope module dut $end
$scope module rvcore $end
$scope module rf $end
$var reg 32 M \rf[8] [31:0] $end
$upscope $end
$upscope $end
$upscope $end
$upscope $end
$scope module testbench $end
$scope module dut $end
$scope module rvcore $end
$scope module rf $end
$var reg 32 N \rf[9] [31:0] $end
$upscope $end
$upscope $end
$upscope $end
$upscope $end
$scope module testbench $end
$scope module dut $end
$scope module rvcore $end
$scope module rf $end
$var reg 32 O \rf[10] [31:0] $end
$upscope $end
$upscope $end
$upscope $end
$upscope $end
$scope module testbench $end
$scope module dut $end
$scope module rvcore $end
$scope module rf $end
$var reg 32 P \rf[11] [31:0] $end
$upscope $end
$upscope $end
$upscope $end
$upscope $end
$enddefinitions $end
$comment Show the parameter values. $end
$dumpall
$end
#0
$dumpvars
bx P
bx O
bx N
bx M
bx L
bx K
bx J
bx I
bx H
bx G
bx F
b0 E
b0 D
0C
b0 B
b0 A
b0 @
0?
b0 >
b0 =
b0 <
b0 ;
b0 :
b0 9
b0 8
b0 7
b0 6
b0 5
04
03
02
01
b0 0
b0 /
b0 .
b0 -
b0 ,
b0 +
b10011 *
b10011 )
b10011 (
b10011 '
b10010011 &
0%
b10010011 $
b0 #
1"
1!
$end
#5
0!
#10
1!
#15
0!
#20
1!
#22
0"
#25
0!
#30
b100010011 $
b100010011 &
bx E
b10010011 '
b100 #
1!
#35
0!
#40
b1010000000000010000010011 $
b1010000000000010000010011 &
b1000 #
b100010011 '
b1 -
b10010011 (
1!
#45
0!
#50
b10100000000010010010011 $
b10100000000010010010011 &
b10100 ,
1C
b10010011 )
b10 -
b100010011 (
b1010000000000010000010011 '
b1100 #
1!
#55
0!
#60
b10010101 $
b10100001000000010010011 &
b10100 ;
1%
bx <
b101 ,
b10100 8
b10000 #
b10100000000010010010011 '
b1000 -
b10100 /
b10100 9
b1010000000000010000010011 (
b100010011 )
b1 D
b10010011 *
1!
#65
0!
#70
b101 ;
b100001101 $
b1100010000000100010011 &
b101 8
b1 +
b0 F
b10 D
b100010011 *
b1010000000000010000010011 )
bx >
bx A
b10100 =
b10100 @
b1001 -
b101 /
b101 9
b10100000000010010010011 (
b10100001000000010010011 '
b10010 #
1!
#75
0!
#80
b1001000010001010 $
b1000001000000010110011 &
b10100 B
b10 +
b11 ,
b0 G
b10100 #
b1100010000000100010011 '
b1 -
b1 .
b10100001000000010010011 (
b10100000000010010010011 )
b101 =
b101 @
b1000 D
b1010000000000010000010011 *
1!
#85
0!
#90
b11 ;
b10000110 $
b100001001000010010011 &
b101 B
b11 8
b1 +
b10 ,
b10100 M
b1001 D
b10100000000010010010011 *
b10100001000000010010011 )
b10 -
b11 /
b10 .
b11 9
b1100010000000100010011 (
b1000001000000010110011 '
b10110 #
1!
#95
0!
#100
b101 7
b1 5
b110001010000101 $
b1001010110111 &
b10 6
b1000 ;
b11 <
b1 ,
b11 8
b101 N
b11000 #
b100001001000010010011 '
b1 -
b10 /
b1 .
bx 9
b1000001000000010110011 (
b1100010000000100010011 )
b11 =
b11 @
b1 D
b10100001000000010010011 *
1!
#105
0!
#110
b1000 7
b10 5
b1000110000000101 $
b1000000100101000000010000110011 &
b11 B
b1000 <
b10000 ;
b1 8
b0 +
b0 ,
b101 F
b10 D
b1100010000000100010011 *
b1000001000000010110011 )
b11 >
b11 A
b1000 =
b1000 @
b1 /
b1 9
b100001001000010010011 (
b110 :
b1001010110111 '
b11010 #
1!
#115
0!
#120
b1000110000100101 $
b100101000100010000110011 &
b0 6
b0 5
b1000 B
b1000 +
b1001 ,
b1000000000000 8
b1000000000000 ;
b0 7
b0 <
b11 G
b11100 #
b1000000100101000000010000110011 '
b101 -
b0 /
b0 .
b1000000000000 9
b1001010110111 (
b1001 :
b100001001000010010011 )
b1000 >
b1000 A
b10000 =
b10000 @
b1 D
b1000001000000010110011 *
1!
#125
0!
#130
b1000110001000101 $
b100101000110010000110011 &
b10000 B
b101 <
b10100 7
b1111 ;
b101 8
b1000 F
b100001001000010010011 *
b1001010110111 )
b0 >
b0 A
b1000000000000 =
b1000000000000 @
b1000 -
b1001 /
b1000 .
bx 9
b1000000100101000000010000110011 (
b1 :
b100101000100010000110011 '
b11110 #
1!
#135
0!
#140
b1111 7
b1000110001100101 $
b100101000111010000110011 &
b10 5
b1000000000000 B
b1010 ;
b10000 F
b100000 #
b100101000110010000110011 '
b100101000100010000110011 (
b100 :
b1000000100101000000010000110011 )
b101 >
b101 A
b1111 =
b1111 @
b101 D
b1001010110111 *
1!
#145
0!
#150
b1000000000000101 $
b101000101010000010011 &
b1111 B
b1010 7
b1111 ;
b1000000000000 J
b1000 D
b1000000100101000000010000110011 *
b100101000100010000110011 )
b1010 =
b1010 @
b100101000110010000110011 (
b11 :
b100101000111010000110011 '
b100010 #
1!
#155
0!
#160
b1000010000000101 $
b1000000000101000101010000010011 &
b1010 B
b1 ,
b101 ;
b1111 7
b1111 M
b100100 #
b101000101010000010011 '
b100101000111010000110011 (
b10 :
b100101000110010000110011 )
b1111 =
b1111 @
b100101000100010000110011 *
1!
#165
0!
#170
b10100101 $
b100100001000000010010011 &
b1111 B
b10000 <
b101 7
b10 ;
b1 8
b1010 M
b100101000110010000110011 *
b100101000111010000110011 )
b101 =
b101 @
b1 /
b1 9
b101000101010000010011 (
b111 :
b1000000000101000101010000010011 '
b100110 #
1!
#175
0!
#180
b110000100000010001000100011 $
b110000100000010001000100011 &
0%
b101 B
b1 +
b1001 ,
b10000000001 8
b1 ;
b10 7
b1111 M
b101000 #
b100100001000000010010011 '
b10000000001 9
b1000000000101000101010000010011 (
b1000 :
b101000101010000010011 )
b10000 >
b10000 A
b10 =
b10 @
b100101000111010000110011 *
1!
#185
0!
#190
b0 5
b1100011 $
b1100011 &
b10 B
b101 <
b10000 7
b1001 8
b11001 ;
b0 +
b1 ,
b101 M
b101000101010000010011 *
b1000000000101000101010000010011 )
b1 =
b1 @
b1 -
b1001 /
b1 .
b1001 9
b100100001000000010010011 (
b0 :
b110000100000010001000100011 '
b101100 #
1!
#195
0!
#200
bx $
bx &
b10 6
x%
b1100100 ;
b11001 <
b0 7
b1 B
b0 ,
b1100100 8
b10 M
b110000 #
b1100011 '
b100 -
b1 /
b0 .
b1100100 9
b110000100000010001000100011 (
b100100001000000010010011 )
b101 >
b101 A
b11001 =
b11001 @
b1000000000101000101010000010011 *
1!
#205
0!
#210
14
13
b0 ;
b11001 B
b0 6
b0 <
b0 8
bx +
bx ,
b1 M
b1 D
b100100001000000010010011 *
b110000100000010001000100011 )
b11001 >
b11001 A
b1100100 =
b1100100 @
1?
b0 -
b0 /
b0 9
b1100011 (
b1 :
bx '
bx #
1!
#215
0!
#220
b1100011 $
b1100011 &
04
0%
03
b1100100 B
b0 +
b0 ,
b11001 F
b101100 #
b10011 '
b10011 (
b0 :
b1100011 )
b0 >
b0 A
b0 =
b0 @
0?
b100 D
b110000100000010001000100011 *
0C
1!
#225
0!
#230
bx $
bx &
b0 B
x%
b0 D
b1100011 *
b10011 )
b1100011 '
b110000 #
1!
